#######################################
#########                   ###########
####       MEIOU and Taxes        #####
####			Sun_Wu			   ####
#########                   ###########
#######################################

#British Isles
CEL_ideas = {
	start = {
	}
	
	bonus = {
	}
	
	trigger = {
		tag = CEL
	}
	
	free = yes
	
	generic_trait = {
	}
	british_islands = {
		transport_cost = -0.10
	}
	brythonic_naval_legacy = {
		global_sailors_modifier = 0.025
	}
	druids = {
		idea_cost = -0.05
		global_missionary_strength = 0.01
		diplomatic_reputation = 0.5
	}
	head_hunters = {
		infantry_power = 0.05
		shock_damage = 0.1
	}
	skilled_metalworkers = {
		production_efficiency = 0.15
		prestige = 0.10
	}
	rather_death_than_dishonored = {
		land_morale = 0.05
		naval_morale = 0.10
	}
}

UEF_ideas = {
	start = {
	}
	
	bonus = {
	}
	
	trigger = {
		tag = UEF
	}
	
	free = yes
	
	generic_trait = {
	}
	british_islands = {
		transport_cost = -0.10
	}
	english_navy_cities = { #24p
		global_spy_defence = 0.10
		blockade_efficiency = 0.20
		embargo_efficiency = 0.20
		light_ship_power = 0.075
	}
	lingua_franca = {
		diplomatic_upkeep = 1 #7
		vassal_income = 0.10 #20
	}
	merchants_of_the_staple = { #15p
		placed_merchant_power = 0.20 #8
		global_foreign_trade_power = 0.10 #7
	}
	estates_general = { #17
		global_tax_modifier = 0.1
		production_efficiency = 0.075
	}
	legacy_of_hyw_uef = { #18
		mil_tech_cost_modifier = -0.10
		artillery_cost = -0.05
	}
}

#France

OCC_ideas = {
	start = {
		
	}
	
	bonus = {
	}
	
	trigger = {
		tag = OCC
	}
	
	free = yes
	
	authoritarian_trait = {
	}
	garonne_river_trait = {
		advisor_cost = -0.02
	}
	lenga_d_oc = {
		improve_relation_modifier = 0.15 #7 points
		diplomatic_upkeep = 1 # 7 points
	}
	old_kingdoms = {
		legitimacy = 0.15 #7.5
		diplomatic_reputation = 0.5 #8
	}
	provencal_ports = {
		global_prov_trade_power_modifier = 0.10
		merchants = 1 #20
	}
	languedocien_tolerance = {
		tolerance_heretic = 1 #14
		tolerance_heathen = 1
	}
	gascon_troops = {
		infantry_power = 0.05 # 15
		mercenary_discipline = 0.025 #10
	}
}

ARL_ideas = {
	start = {
		diplomatic_upkeep = 1
		diplomatic_reputation = 2
	}
	
	bonus = {
		global_manpower_modifier = 0.15
	}
	
	trigger = {
		tag = ARL
		always = no
	}
	
	free = yes
	
	memories_of_angevin = {
		fabricate_claims_cost = -0.2
	}
	formation_of_the_lances = {
		discipline = 0.05
		land_morale = 0.1
	}
	provencal_port = {
		trade_efficiency = 0.15
	}
	toulon_shipyard = {
		naval_forcelimit_modifier = 0.15
		naval_maintenance_modifier = -0.10
	}
	king_of_arles = {
		prestige = 1
		legitimacy = 1
	}
	tarascons_castle = {
		defensiveness = 0.2
	}
	provencal_quilting = {
		production_efficiency = 0.1
	}
}

#Iberia

#Low Countries

#Germany

ASE_ideas = {
	start = {
		light_ship_power = 0.2
	}
	
	bonus = {
		core_creation = -0.10
	}
	
	trigger = {
		tag = ASE
		always = no
	}
	
	free = yes
	
	looters = {
		land_attrition = -0.10
		naval_attrition = -0.10
	}
	raiders = {
		land_morale = 0.10
		leader_land_shock = 1
	}
	abandoning_our_pagan_traditions = {
		tolerance_own = 1
	}
	our_home_is_the_sea = {
		naval_morale = 0.1
	}
	a_lasting_identity = {
		prestige = 1
	}
	wandering_hearts = {
		global_colonial_growth = 10
		range = 0.15
	}
	the_domesday_book = {
		global_tax_modifier = 0.20
	}
}

#Italy

#Scandinavia

#Baltics
ILL_ideas = {
	start = {
		navy_tradition = 1
		navy_tradition_decay = -0.01
	}
	
	bonus = {
		naval_forcelimit_modifier = 0.33
	}
	
	trigger = {
		tag = ILL
		always = no
	}
	
	free = yes
	
	illyria_rules_the_sea = {
		global_ship_cost = -0.15
		global_ship_recruit_speed = -0.10
	}
	sea_guerillas = {
		galley_power = 0.2
		naval_morale = 0.15
	}
	total_control_of_the_adriatic = {
		global_prov_trade_power_modifier = 0.10
		global_foreign_trade_power = 0.10
	}
	hellenic_influences = {
		technology_cost = -0.05
	}
	sica = {
		infantry_power = 0.10
	}
	defiers_of_rome = {
		enemy_core_creation = 0.5
	}
	koine = {
		global_unrest = -1
	}
}

#Hellas

#Anatolia

#Africa

#India

GUP_ideas = {
	start = {
		prestige = 1
		technology_cost = -0.10
	}
	
	bonus = {
		num_accepted_cultures = -0.33
	}
	
	trigger = {
		tag = GUP
		always = no
	}
	
	free = yes
	
	ports_of_the_silk_road = {
		global_trade_power = 0.15
	}
	the_indian_steel_longbow = {
		infantry_power = 0.10
		leader_land_fire = 1
	}
	navaratna = {
		advisor_cost = -0.20
	}
	holding_back_the_huns = {
		discipline = 0.05
	}
	support_for_buddhist_and_jain_cultures = {
		tolerance_heathen = 1
		tolerance_heretic = 1
	}
	vishayapati = {
		global_tax_modifier = 0.10
	}
	the_world_trembles = {
		land_forcelimit_modifier = 0.15
		naval_forcelimit_modifier = 0.15
	}
}

#East-Asia

#Central Asia

#Persia

ILK_ideas = {
	start = {
		years_of_nationalism = -5
		land_maintenance_modifier = -0.15
	}
	
	bonus = {
		global_unrest = -1
	}
	
	trigger = {
		tag = ILK
		always = no
	}
	
	free = yes
	
	we_do_not_sow = {
		core_creation = -0.25
	}
	the_horde_is_here = {
		cavalry_power = 0.15
		discipline = 0.025
	}
	silk_route_empire = {
		caravan_power = 0.15
		trade_efficiency = 0.1
	}
	the_blood_of_genghis_khan = {
		advisor_pool = 2
	}
	steppe_leaders = {
		leader_land_shock = 1
	}
	alliance_with_the_west = {
		diplomatic_upkeep = 2
		technology_cost = -0.05
	}
	conversion_to_islam = {
		tolerance_own = 2
	}
}

#Indochina

#Indonesia

# Latin Empire
LAT_ideas = {
	start = {
	}
	
	bonus = {
	}
	
	trigger = {
		tag = LAT
	}
	
	free = yes
	
	equality_trait = { #25
	}
	aegean_sea_idea = {
		transport_cost = -0.10
		ship_durability = 0.05
	}
	greek_maritime_heritage = {
		navy_tradition_decay = -0.005
		global_own_trade_power = 0.05
	}
	re_educating_the_east = {
		missionaries = 1
		global_heretic_missionary_strength = 0.025
		papal_influence = 2
		prestige_per_development_from_conversion = 0.1
	}
	learning_from_the_ancients = {
		technology_cost = -0.025
		idea_cost = -0.05
	}
	western_support = {
		diplomatic_upkeep = 1
		possible_mercenaries = 0.50
	}
	knightly_order = {
		army_tradition_decay = -0.005
		free_leader_pool = 1
		land_morale = 0.1
	}
}
