#Timurid Empire

# Georgia and the Timurid Empire
vassal = {
	first = TIM
	second = GEO
	start_date = 1403.1.1
	end_date = 1405.1.1
}

# Dual regency of Timurid lands
vassal = {
	first = KHO
	second = SAM
	start_date = 1409.1.1
	end_date = 1447.3.12
}
