namespace = DO_trade_company_development

country_event = { # Accepted Culture Trade Company Development
	id = DO_trade_company_development.001
	title = DO_trade_company_development.001.t
	desc = DO_trade_company_development.001.d
	picture = COMPANY_BASE_eventPicture
	hidden = yes
	
	trigger = {
		num_of_owned_provinces_with = {
				is_owned_by_trade_company = yes
				OR = { 
					has_owner_accepted_culture = yes 
					has_owner_culture = yes 
				}
				value = 1
		
		}
		NOT = { has_country_flag = show_development }
	}														
	mean_time_to_happen = {
        days = 14600

############## Country Size Modifiers ###############
	
		modifier = { 
			factor = 0.5
			num_of_owned_provinces_with = {
				is_owned_by_trade_company = yes
				OR = { has_owner_accepted_culture = yes 
							has_owner_culture = yes }
				value = 2
			}
			
		}
		modifier = { 
			factor =0.667
			num_of_owned_provinces_with = {
				is_owned_by_trade_company = yes
				OR = { has_owner_accepted_culture = yes 
							has_owner_culture = yes }
				value = 3
			}
		}
		modifier = { 
			factor = 0.75
			num_of_owned_provinces_with = {
				is_owned_by_trade_company = yes
				OR = { has_owner_accepted_culture = yes 
							has_owner_culture = yes }
				value = 4
			}
		}
		modifier = { 
			factor = 0.727
			num_of_owned_provinces_with = {
				is_owned_by_trade_company = yes
				OR = { has_owner_accepted_culture = yes 
							has_owner_culture = yes }
				value = 5
			}
		}
		modifier = { 
			factor = 0.687
			num_of_owned_provinces_with = {
				is_owned_by_trade_company = yes
				OR = { has_owner_accepted_culture = yes 
							has_owner_culture = yes }
				value = 6
			}
		}
		modifier = { 
			factor = 0.8
			num_of_owned_provinces_with = {
				is_owned_by_trade_company = yes
				OR = { has_owner_accepted_culture = yes 
							has_owner_culture = yes }
				value = 7
			}
		}		
		modifier = { 
			factor = 0.8
			num_of_owned_provinces_with = {
				is_owned_by_trade_company = yes
				OR = { has_owner_accepted_culture = yes 
							has_owner_culture = yes }
				value = 9
			}
		}
		modifier = { 
			factor = 0.837
			num_of_owned_provinces_with = {
				is_owned_by_trade_company = yes
				OR = { has_owner_accepted_culture = yes 
							has_owner_culture = yes }
				value = 11
			}
		}
		modifier = { 
			factor = 0.835
			num_of_owned_provinces_with = {
				is_owned_by_trade_company = yes
				OR = { has_owner_accepted_culture = yes 
							has_owner_culture = yes }
				value = 13
			}
		}
		modifier = { 
			factor = 0.81
			num_of_owned_provinces_with = {
				is_owned_by_trade_company = yes
				OR = { has_owner_accepted_culture = yes 
							has_owner_culture = yes }
				value = 16
			}
		}
		modifier = { 
			factor = 0.835
			num_of_owned_provinces_with = {
				is_owned_by_trade_company = yes
				OR = { has_owner_accepted_culture = yes 
							has_owner_culture = yes }
				value = 19
			}
		}
		modifier = { 
			factor = 0.843
			num_of_owned_provinces_with = {
				is_owned_by_trade_company = yes
				OR = { has_owner_accepted_culture = yes 
							has_owner_culture = yes }
				value = 23
			}
		}
		modifier = { 
			factor = 0.87
			num_of_owned_provinces_with = {
				is_owned_by_trade_company = yes
				OR = { has_owner_accepted_culture = yes 
							has_owner_culture = yes }
				value = 27
			}
		}
		modifier = { 
			factor = 0.87
			num_of_owned_provinces_with = {
				is_owned_by_trade_company = yes
				OR = { has_owner_accepted_culture = yes 
							has_owner_culture = yes }
				value = 31
			}
		}
		modifier = { 
			factor = 0.87
			num_of_owned_provinces_with = {
				is_owned_by_trade_company = yes
				OR = { has_owner_accepted_culture = yes 
							has_owner_culture = yes }
				value = 35
			}
		}
		modifier = { 
			factor = 0.89
			num_of_owned_provinces_with = {
				is_owned_by_trade_company = yes
				OR = { has_owner_accepted_culture = yes 
							has_owner_culture = yes }
				value = 39
			}
		}
		modifier = { 
			factor = 0.904
			num_of_owned_provinces_with = {
				is_owned_by_trade_company = yes
				OR = { has_owner_accepted_culture = yes 
							has_owner_culture = yes }
				value = 49
			}
		}
		modifier = { 
			factor = 0.911
			num_of_owned_provinces_with = {
				is_owned_by_trade_company = yes
				OR = { has_owner_accepted_culture = yes 
							has_owner_culture = yes }
				value = 54
			}
		}
		modifier = { 
			factor = 0.911
			num_of_owned_provinces_with = {
				is_owned_by_trade_company = yes
				OR = { has_owner_accepted_culture = yes 
							has_owner_culture = yes }
				value = 59
			}
		}
		modifier = { 
			factor = 0.912
			num_of_owned_provinces_with = {
				is_owned_by_trade_company = yes
				OR = { has_owner_accepted_culture = yes 
							has_owner_culture = yes }
				value = 65
			}
		}
		modifier = { 
			factor = 0.919
			num_of_owned_provinces_with = {
				is_owned_by_trade_company = yes
				OR = { has_owner_accepted_culture = yes 
							has_owner_culture = yes }
				value = 71
			}
		}
		modifier = { 
			factor = 0.925
			num_of_owned_provinces_with = {
				is_owned_by_trade_company = yes
				OR = { has_owner_accepted_culture = yes 
							has_owner_culture = yes }
				value = 77
			}
		}
		modifier = { 
			factor = 0.925
			num_of_owned_provinces_with = {
				is_owned_by_trade_company = yes
				OR = { has_owner_accepted_culture = yes 
							has_owner_culture = yes }
				value = 83
			}
		}
		modifier = { 
			factor = 0.925
			num_of_owned_provinces_with = {
				is_owned_by_trade_company = yes
				OR = { has_owner_accepted_culture = yes 
							has_owner_culture = yes }
				value = 90
			}
		}
		modifier = { 
			factor = 0.93
			num_of_owned_provinces_with = {
				is_owned_by_trade_company = yes
				OR = { has_owner_accepted_culture = yes 
							has_owner_culture = yes }
				value = 97
			}
		}
		modifier = { 
			factor = 0.934
			num_of_owned_provinces_with = {
				is_owned_by_trade_company = yes
				OR = { has_owner_accepted_culture = yes 
							has_owner_culture = yes }
				value = 104
			}
		}
		modifier = { 
			factor = 0.931
			num_of_owned_provinces_with = {
				is_owned_by_trade_company = yes
				OR = { has_owner_accepted_culture = yes 
							has_owner_culture = yes }
				value = 111
			}
		}
		modifier = { 
			factor = 0.924
			num_of_owned_provinces_with = {
				is_owned_by_trade_company = yes
				OR = { has_owner_accepted_culture = yes 
							has_owner_culture = yes }
				value = 120
			}
		}
		modifier = { 
			factor = 0.926
			num_of_owned_provinces_with = {
				is_owned_by_trade_company = yes
				OR = { has_owner_accepted_culture = yes 
							has_owner_culture = yes }
				value = 130
			}
		}
		modifier = { 
			factor = 0.931
			num_of_owned_provinces_with = {
				is_owned_by_trade_company = yes
				OR = { has_owner_accepted_culture = yes 
							has_owner_culture = yes }
				value = 140
			}
		}
		modifier = { 
			factor = 0.935
			num_of_owned_provinces_with = {
				is_owned_by_trade_company = yes
				OR = { has_owner_accepted_culture = yes 
							has_owner_culture = yes }
				value = 150
			}
		}
		modifier = { 
			factor = 0.940
			num_of_owned_provinces_with = {
				is_owned_by_trade_company = yes
				OR = { has_owner_accepted_culture = yes 
							has_owner_culture = yes }
				value = 160
			}
		}
		modifier = { 
			factor = 0.93
			num_of_owned_provinces_with = {
				is_owned_by_trade_company = yes
				OR = { has_owner_accepted_culture = yes 
							has_owner_culture = yes }
				value = 170
			}
		}
		modifier = { 
			factor = 0.922
			num_of_owned_provinces_with = {
				is_owned_by_trade_company = yes
				OR = { has_owner_accepted_culture = yes 
							has_owner_culture = yes }
				value = 185
			}
		}
		modifier = { 
			factor = 0.917
			num_of_owned_provinces_with = {
				is_owned_by_trade_company = yes
				OR = { has_owner_accepted_culture = yes 
							has_owner_culture = yes }
				value = 200
			}
		}
		modifier = { 
			factor = 0.913
			num_of_owned_provinces_with = {
				is_owned_by_trade_company = yes
				OR = { has_owner_accepted_culture = yes 
							has_owner_culture = yes }
				value = 220
			}
		}
		modifier = { 
			factor = 0.92
			num_of_owned_provinces_with = {
				is_owned_by_trade_company = yes
				OR = { has_owner_accepted_culture = yes 
							has_owner_culture = yes }
				value = 240
			}
		}
		modifier = { 
			factor = 0.926
			num_of_owned_provinces_with = {
				is_owned_by_trade_company = yes
				OR = { has_owner_accepted_culture = yes 
							has_owner_culture = yes }
				value = 260
			}
		}
		modifier = { 
			factor = 0.931
			num_of_owned_provinces_with = {
				is_owned_by_trade_company = yes
				OR = { has_owner_accepted_culture = yes 
							has_owner_culture = yes }
				value = 280
			}
		}
		modifier = { 
			factor = 0.921
			num_of_owned_provinces_with = {
				is_owned_by_trade_company = yes
				OR = { has_owner_accepted_culture = yes 
							has_owner_culture = yes }
				value = 300
			}
		}
		modifier = { 
			factor = 0.913
			num_of_owned_provinces_with = {
				is_owned_by_trade_company = yes
				OR = { has_owner_accepted_culture = yes 
							has_owner_culture = yes }
				value = 330
			}
		}
		
		
		############## Positive Modifiers ###############		
		
		modifier = { 
			factor = 2.0
			has_country_modifier = trade_company_failing
		}
		modifier = { 
			factor = 0.5
			has_country_modifier = private_trade_company
		}
		modifier = { 
			factor = 0.5
			has_country_modifier = trade_company_thriving
		}
		modifier = { 
			factor = 0.75
			has_active_policy = develop_our_trade_companies
		}
		
	}
		
	option = {
		name = DO_trade_company_development.01.a
	#	random_owned_province = {
	#		limit = { 
	#			is_owned_by_trade_company = yes
	#			OR = { has_owner_accepted_culture = yes 
	#						has_owner_culture = yes }
	#		}
	#		random_list = {
	#			40 = { add_base_tax = 1 }
	#			20 = { add_base_production = 1}
	#			40 = { }
	#			}
	#		if = {
	#			limit = {
	#				owner = { has_country_modifier = trade_company_trade } }	
	#			random_list = {
	#			40 = { add_base_tax = 1 }
	#			60 = { }
	#			}
	#		}
	#		if = {
	#			limit = {
	#				owner = { has_country_modifier = trade_company_production } } 	
	#			random_list = {
	#			40 = { add_base_production = 1 }
	#			60 = { }
	#			}
	#		}
	#		if = {
	#			limit = {
	#				has_province_modifier = ideal_european_port }  	
	#			random_list = {
	#			10 = { add_base_tax = 1 }
	#			90 = { }
	#			}
	#		}
	#		if = {
	#			limit = {
	#				has_province_modifier = european_trade_center }  	
	#			random_list = {
	#			20 = { add_base_tax = 1 }
	#			80 = { }
	#			}
	#		}
	#		if = {
	#			limit = {
	#				has_province_modifier = major_european_trade_center }  	
	#			random_list = {
	#			40 = { add_base_tax = 1 }
	#			60 = { }
	#			}
	#		}
	#	}					
	}				
}

country_event = { #Unaccepted Culture Trade Company Development
	id = DO_trade_company_development.002
	title = DO_trade_company_development.002.t
	desc = DO_trade_company_development.002.d
	picture = COMPANY_BASE_eventPicture
	hidden = yes
	
	trigger = { num_of_owned_provinces_with = {
					is_owned_by_trade_company = yes
					NOT = { has_owner_accepted_culture = yes }
				   	NOT = { culture_group = ROOT }
					value = 1
				}		
				NOT = { has_country_flag = show_development }
	}		

	mean_time_to_happen = {
        days = 14600
	
		modifier = { 
			factor = 0.5
			num_of_owned_provinces_with = {
				is_owned_by_trade_company = yes
				NOT = { has_owner_accepted_culture = yes }
				NOT = { culture_group = ROOT }
				value = 2
			}
		}
		modifier = { 
			factor = 0.667
			num_of_owned_provinces_with = {
				is_owned_by_trade_company = yes
				NOT = { has_owner_accepted_culture = yes }
				NOT = { culture_group = ROOT }
				value = 3
			}
		}
		modifier = { 
			factor = 0.75
			num_of_owned_provinces_with = {
				is_owned_by_trade_company = yes
				NOT = { has_owner_accepted_culture = yes }
				NOT = { culture_group = ROOT }
				value = 4
			}
		}
		modifier = { 
			factor = 0.727
			num_of_owned_provinces_with = {
				NOT = { has_owner_accepted_culture = yes }
				NOT = { culture_group = ROOT }
				value = 5
			}
		}
		modifier = { 
			factor = 0.687
			num_of_owned_provinces_with = {
				NOT = { has_owner_accepted_culture = yes }
				NOT = { culture_group = ROOT }
				value = 6
			}
		}
		modifier = { 
			factor = 0.8
			num_of_owned_provinces_with = {
				NOT = { has_owner_accepted_culture = yes }
				NOT = { culture_group = ROOT }
				value = 7
			}
		}		
		modifier = { 
			factor = 0.8
			num_of_owned_provinces_with = {
				NOT = { has_owner_accepted_culture = yes }
				NOT = { culture_group = ROOT }
				value = 9
			}
		}
		modifier = { 
			factor = 0.837
			num_of_owned_provinces_with = {
				NOT = { has_owner_accepted_culture = yes }
				NOT = { culture_group = ROOT }
				value = 11
			}
		}
		modifier = { 
			factor = 0.835
			num_of_owned_provinces_with = {
				NOT = { has_owner_accepted_culture = yes }
				NOT = { culture_group = ROOT }
				value = 13
			}
		}
		modifier = { 
			factor = 0.81
			num_of_owned_provinces_with = {
				NOT = { has_owner_accepted_culture = yes }
				NOT = { culture_group = ROOT }
				value = 16
			}
		}
		modifier = { 
			factor = 0.835
			num_of_owned_provinces_with = {
				NOT = { has_owner_accepted_culture = yes }
				NOT = { culture_group = ROOT }
				value = 19
			}
		}
		modifier = { 
			factor = 0.843
			num_of_owned_provinces_with = {
				NOT = { has_owner_accepted_culture = yes }
				NOT = { culture_group = ROOT }
				value = 23
			}
		}
		modifier = { 
			factor = 0.87
			num_of_owned_provinces_with = {
				NOT = { has_owner_accepted_culture = yes }
				NOT = { culture_group = ROOT }
				value = 27
			}
		}
		modifier = { 
			factor = 0.87
			num_of_owned_provinces_with = {
				NOT = { has_owner_accepted_culture = yes }
				NOT = { culture_group = ROOT }
				value = 31
			}
		}
		modifier = { 
			factor = 0.87
			num_of_owned_provinces_with = {
				NOT = { has_owner_accepted_culture = yes }
				NOT = { culture_group = ROOT }
				value = 35
			}
		}
		modifier = { 
			factor = 0.89
			num_of_owned_provinces_with = {
				NOT = { has_owner_accepted_culture = yes }
				NOT = { culture_group = ROOT }
				value = 39
			}
		}
		modifier = { 
			factor = 0.904
			num_of_owned_provinces_with = {
				NOT = { has_owner_accepted_culture = yes }
				NOT = { culture_group = ROOT }
				value = 49
			}
		}
		modifier = { 
			factor = 0.911
			num_of_owned_provinces_with = {
				NOT = { has_owner_accepted_culture = yes }
				NOT = { culture_group = ROOT }
				value = 54
			}
		}
		modifier = { 
			factor = 0.911
			num_of_owned_provinces_with = {
				NOT = { has_owner_accepted_culture = yes }
				NOT = { culture_group = ROOT }
				value = 59
			}
		}
		modifier = { 
			factor = 0.912
			num_of_owned_provinces_with = {
				NOT = { has_owner_accepted_culture = yes }
				NOT = { culture_group = ROOT }
				value = 65
			}
		}
		modifier = { 
			factor = 0.919
			num_of_owned_provinces_with = {
				NOT = { has_owner_accepted_culture = yes }
				NOT = { culture_group = ROOT }
				value = 71
			}
		}
		modifier = { 
			factor = 0.925
			num_of_owned_provinces_with = {
				NOT = { has_owner_accepted_culture = yes }
				NOT = { culture_group = ROOT }
				value = 77
			}
		}
		modifier = { 
			factor = 0.925
			num_of_owned_provinces_with = {
				NOT = { has_owner_accepted_culture = yes }
				NOT = { culture_group = ROOT }
				value = 83
			}
		}
		modifier = { 
			factor = 0.925
			num_of_owned_provinces_with = {
				NOT = { has_owner_accepted_culture = yes }
				NOT = { culture_group = ROOT }
				value = 90
			}
		}
		modifier = { 
			factor = 0.93
			num_of_owned_provinces_with = {
				NOT = { has_owner_accepted_culture = yes }
				NOT = { culture_group = ROOT }
				value = 97
			}
		}
		modifier = { 
			factor = 0.934
			num_of_owned_provinces_with = {
				NOT = { has_owner_accepted_culture = yes }
				NOT = { culture_group = ROOT }
				value = 104
			}
		}
		modifier = { 
			factor = 0.931
			num_of_owned_provinces_with = {
				NOT = { has_owner_accepted_culture = yes }
				NOT = { culture_group = ROOT }
				value = 111
			}
		}
		modifier = { 
			factor = 0.924
			num_of_owned_provinces_with = {
				NOT = { has_owner_accepted_culture = yes }
				NOT = { culture_group = ROOT }
				value = 120
			}
		}
		modifier = { 
			factor = 0.926
			num_of_owned_provinces_with = {
				NOT = { has_owner_accepted_culture = yes }
				NOT = { culture_group = ROOT }
				value = 130
			}
		}
		modifier = { 
			factor = 0.931
			num_of_owned_provinces_with = {
				NOT = { has_owner_accepted_culture = yes }
				NOT = { culture_group = ROOT }
				value = 140
			}
		}
		modifier = { 
			factor = 0.935
			num_of_owned_provinces_with = {
				NOT = { has_owner_accepted_culture = yes }
				NOT = { culture_group = ROOT }
				value = 150
			}
		}
		modifier = { 
			factor = 0.940
			num_of_owned_provinces_with = {
				NOT = { has_owner_accepted_culture = yes }
				NOT = { culture_group = ROOT }
				value = 160
			}
		}
		modifier = { 
			factor = 0.93
			num_of_owned_provinces_with = {
				NOT = { has_owner_accepted_culture = yes }
				NOT = { culture_group = ROOT }
				value = 170
			}
		}
		modifier = { 
			factor = 0.922
			num_of_owned_provinces_with = {
				NOT = { has_owner_accepted_culture = yes }
				NOT = { culture_group = ROOT }
				value = 185
			}
		}
		modifier = { 
			factor = 0.917
			num_of_owned_provinces_with = {
				NOT = { has_owner_accepted_culture = yes }
				NOT = { culture_group = ROOT }
				value = 200
			}
		}
		modifier = { 
			factor = 0.913
			num_of_owned_provinces_with = {
				NOT = { has_owner_accepted_culture = yes }
				NOT = { culture_group = ROOT }
				value = 220
			}
		}
		modifier = { 
			factor = 0.92
			num_of_owned_provinces_with = {
				NOT = { has_owner_accepted_culture = yes }
				NOT = { culture_group = ROOT }
				value = 240
			}
		}
		modifier = { 
			factor = 0.926
			num_of_owned_provinces_with = {
				NOT = { has_owner_accepted_culture = yes }
				NOT = { culture_group = ROOT }
				value = 260
			}
		}
		modifier = { 
			factor = 0.931
			num_of_owned_provinces_with = {
				NOT = { has_owner_accepted_culture = yes }
				NOT = { culture_group = ROOT }
				value = 280
			}
		}
		modifier = { 
			factor = 0.921
			num_of_owned_provinces_with = {
				NOT = { has_owner_accepted_culture = yes }
				NOT = { culture_group = ROOT }
				value = 300
			}
		}
		modifier = { 
			factor = 0.913
			num_of_owned_provinces_with = {
				NOT = { has_owner_accepted_culture = yes }
				NOT = { culture_group = ROOT }
				value = 330
			}
		}
		modifier = { 
			factor = 0.92
			num_of_owned_provinces_with = {
				NOT = { has_owner_accepted_culture = yes }
				NOT = { culture_group = ROOT }
				value = 360
			}
		}
		modifier = { 
			factor = 0.904
			num_of_owned_provinces_with = {
				NOT = { has_owner_accepted_culture = yes }
				NOT = { culture_group = ROOT }
				value = 390
			}
		}
		modifier = { 
			factor = 0.883
			num_of_owned_provinces_with = {
				NOT = { has_owner_accepted_culture = yes }
				NOT = { culture_group = ROOT }
				value = 440
			}
		}
		modifier = { 
			factor = 0.854
			num_of_owned_provinces_with = {
				NOT = { has_owner_accepted_culture = yes }
				NOT = { culture_group = ROOT }
				value = 500
			}
		}

	############# Positive Modifiers ##############
	
		modifier = { 
			factor = 2.0
			has_country_modifier = trade_company_failing
		}
		modifier = { 
			factor = 0.5
			has_country_modifier = private_trade_company
		}
		modifier = { 
			factor = 0.5
			has_country_modifier = trade_company_thriving
		}
		modifier = { 
			factor = 0.75
			has_active_policy = develop_our_trade_companies
		}
	}
	
	
	
	option = {
		name = DO_trade_company_development.002.a
		random_owned_province = {
			limit = { is_owned_by_trade_company = yes
					NOT = { has_owner_accepted_culture = yes }
					NOT = { culture_group = ROOT }
			}
#			random_list = {
#				20 = { add_base_tax = 1 }
#				10 = { add_base_production = 1}
#				70 = { }
#			}
			if = {
				limit = {
					owner = { has_country_modifier = trade_company_trade } }	
#				random_list = {
#				20 = { add_base_tax = 1 }
#				80 = { }
#				}
			}
			if = {
				limit = {
					owner = { has_country_modifier = trade_company_production } } 	
#				random_list = {
#				20 = { add_base_production = 1 }
#				80 = { }
#				}
			}
			if = {
				limit = {
					has_province_modifier = ideal_european_port }  	
#				random_list = {
#				30 = { add_base_tax = 1 }
#				70 = { }
#				}
			}
			if = {
				limit = {
					has_province_modifier = european_trade_center }  	
#				random_list = {
#				20 = { add_base_tax = 1 }
#				80 = { }
#				}
			}
			if = {
				limit = {
					has_province_modifier = major_european_trade_center }  	
#				random_list = {
#				40 = { add_base_tax = 1 }
#				60 = { }
#				}
			}
		}					
	}					
}					

					
country_event = { # Private or Crown Controlled Trade?
	id = DO_trade_company_development.003
	title = DO_trade_company_development.003.t
	desc = DO_trade_company_development.003.d
	picture = COMPANY_BASE_eventPicture
	hidden = no
	
	trigger = {
			num_of_owned_provinces_with = {
					is_owned_by_trade_company = yes
					value = 1
				}
			NOT = { has_country_modifier = crown_trade_company }
			NOT = { has_country_modifier = private_trade_company }
														
	}
	
	mean_time_to_happen = {
        days = 180
	}
	
	option = {
		name = DO_trade_company_development.003.a
			add_country_modifier = {
						name = crown_trade_company
						duration = -1
			}
			ai_chance = { 
				factor = 0
			}
	}
			
	option = {
		name = DO_trade_company_development.003.b
			add_country_modifier = {
						name = private_trade_company
						duration = -1
			}
			ai_chance = { 
				factor = 100
			}
	}
}

country_event = { #Crown Strategy
	id = DO_trade_company_development.004
	title = DO_trade_company_development.004.t
	desc = DO_trade_company_development.004.d
	picture = COMPANY_BASE_eventPicture
	hidden = no
	
	trigger = {
			num_of_owned_provinces_with = {
					is_owned_by_trade_company = yes
					value = 1
			}
			has_country_modifier = crown_trade_company
			NOT = { has_country_modifier = trade_company_trade }
			NOT = { has_country_modifier = trade_company_production }
	}

	mean_time_to_happen = {
        days = 1
	}

	option = {
		name = DO_trade_company_development.004.a
			add_country_modifier = {
						name = trade_company_trade
						duration = -1
						hidden = yes 
						}
			ai_chance = { 
				factor = 80
			}
	}
			
	option = {
		name = DO_trade_company_development.004.b
			add_country_modifier = {
						name = trade_company_production
						duration = -1
						hidden = yes 
			}
			ai_chance = { 
				factor = 20
			}
	}
}

country_event = { #Private Trade Company malus
	id = DO_trade_company_development.005
	title = DO_trade_company_development.005.t
	desc = DO_trade_company_development.005.d
	picture = COMPANY_BASE_eventPicture
	hidden = yes
	
	trigger = {
			has_country_modifier = private_trade_company 
	}
	
	mean_time_to_happen = {
        days = 1
	}
	
	option = {
		name = DO_trade_company_development.005.a
			every_owned_province = {
				limit = { is_owned_by_trade_company = yes } 
				add_province_modifier = { name = "private_owned_trade_province"
								duration = -1}
			}
			
	}
}

country_event = { #Private Trade Company pays dividends
	id = DO_trade_company_development.006
	title = DO_trade_company_development.006.t
	desc = DO_trade_company_development.006.d
	picture = COMPANY_BASE_eventPicture
	hidden = no
	
	trigger = {
			has_country_modifier = private_trade_company 
	}
	
	mean_time_to_happen = {
        days = 3650
	}
	
	option = {
		name = DO_trade_company_development.006.a
			if = {
				limit = { has_country_modifier = presence_in_eastern_trade }
				add_years_of_income = 0.05	
			}	
			if = {
				limit = { has_country_modifier = participant_in_eastern_trade }
				add_years_of_income = 0.05	
			}		
			if = {
				limit = { has_country_modifier = active_player_in_eastern_trade }
				add_years_of_income = 0.1	
			}				
			if = {
				limit = { has_country_modifier = recognized_trade_power }
				add_years_of_income = 0.2	
			}		
			if = {
				limit = { has_country_modifier = formidable_trade_power }
				add_years_of_income = 0.35	
			}		
			if = {
				limit = { has_country_modifier = dominant_trade_power }
				add_years_of_income = 0.6
			}		
			if = {
				limit = { has_country_modifier = supreme_trade_power }
				add_years_of_income = 0.75
			}		
	}
}

country_event = { #Private Trade Goes Bankrupt!
	id = DO_trade_company_development.007
	title = DO_trade_company_development.007.t
	desc = DO_trade_company_development.007.d
	picture = COMPANY_BASE_eventPicture
	hidden = no
	
	trigger = {
			has_country_modifier = private_trade_company 
	}
	
	mean_time_to_happen = {
        days = 10000
	
		modifier = { 
			factor = 1.25
			has_active_policy = develop_our_trade_companies
		}
		
		modifier = { 
			factor = 0.5
			has_country_modifier = presence_in_eastern_trade
			}
			
		modifier = { 
			factor = 0.65
			has_country_modifier = participant_in_eastern_trade
			}
			
		modifier = { 
			factor = 0.7
			has_country_modifier = active_player_in_eastern_trade
		}
		
		modifier = { 
			factor = 0.85
			has_country_modifier = recognized_trade_power
		}
		
		modifier = { 
			factor = 1.25
			has_country_modifier = formidable_trade_power
		}

		modifier = { 
			factor = 1.50
			has_country_modifier = dominant_trade_power
		}
		
		modifier = { 
			factor = 2
			has_country_modifier = supreme_trade_power
		}
	}
	option = { # Bail Them Out
		name = DO_trade_company_development.007.a
			
			if = {
				limit = { has_country_modifier = presence_in_eastern_trade }
				add_years_of_income = -0.10	
			}	
			if = {
				limit = { has_country_modifier = participant_in_eastern_trade }
				add_years_of_income = -0.15	
			}		
			if = {
				limit = { has_country_modifier = active_player_in_eastern_trade }
				add_years_of_income = -0.35	
			}				
			if = {
				limit = { has_country_modifier = recognized_trade_power }
				add_years_of_income = -0.55	
			}		
			if = {
				limit = { has_country_modifier = formidable_trade_power }
				add_years_of_income = -0.75	
			}		
			if = {
				limit = { has_country_modifier = dominant_trade_power }
				add_years_of_income = -1
			}		
			if = {
				limit = { has_country_modifier = supreme_trade_power }
				add_years_of_income = -1.5
			}	
			ai_chance = { 
				factor = 75
			}
	}		
			
	option = { # Nationalize Trade Company
		name = DO_trade_company_development.007.b		
			
			hidden_effect = {
				every_owned_province = {
				limit = { is_owned_by_trade_company = yes } 
				remove_province_modifier = private_owned_trade_province
				}
			}
			remove_country_modifier = private_trade_company
			add_country_modifier = {
						name = crown_trade_company
						duration = -1
			}
			
			if = {
				limit = { has_country_modifier = presence_in_eastern_trade }
				add_years_of_income = -0.15	
			}	
			if = {
				limit = { has_country_modifier = participant_in_eastern_trade }
				add_years_of_income = -0.3	
			}		
			if = {
				limit = { has_country_modifier = active_player_in_eastern_trade }
				add_years_of_income = -0.6	
			}				
			if = {
				limit = { has_country_modifier = recognized_trade_power }
				add_years_of_income = -1	
			}		
			if = {
				limit = { has_country_modifier = formidable_trade_power }
				add_years_of_income = -1.5	
			}		
			if = {
				limit = { has_country_modifier = dominant_trade_power }
				add_years_of_income = -2
			}		
			if = {
				limit = { has_country_modifier = supreme_trade_power }
				add_years_of_income = -3
			}
			ai_chance = { 
				factor = 0
			}
	
	}
	
	option = { # Do nothing!
		name = DO_trade_company_development.007.c		
			
			add_country_modifier = {
						name = trade_company_failing
						duration = 7300
			}	
						hidden_effect = {
							country_event = { 
							id = DO_trade_company_development.011
							days = 1 }												
						}
			
		ai_chance = { 
				factor = 25
		}
	}
}
	
country_event = { # Sell Crown Trade Company?
	id = DO_trade_company_development.008
	title = DO_trade_company_development.008.t
	desc = DO_trade_company_development.008.d
	picture = COMPANY_BASE_eventPicture
	hidden = no
	
	trigger = {
			has_country_modifier = crown_trade_company 
			has_country_modifier = trade_company_thriving
			NOT = { has_country_modifier = trade_company_failing }
	}
	
	mean_time_to_happen = {
        days = 1825
	}
	
	option = {
		name = DO_trade_company_development.008.a
			
			remove_country_modifier = crown_trade_company
			add_country_modifier = {
						name = private_trade_company
						duration = -1
						hidden = yes 
			}
			if = {
				limit = { has_country_modifier = presence_in_eastern_trade }
				add_years_of_income = 0.2	
			}	
			if = {
				limit = { has_country_modifier = participant_in_eastern_trade }
				add_years_of_income = 0.4	
			}		
			if = {
				limit = { has_country_modifier = active_player_in_eastern_trade }
				add_years_of_income = 0.6	
			}				
			if = {
				limit = { has_country_modifier = recognized_trade_power }
				add_years_of_income = 1	
			}		
			if = {
				limit = { has_country_modifier = formidable_trade_power }
				add_years_of_income = 2	
			}		
			if = {
				limit = { has_country_modifier = dominant_trade_power }
				add_years_of_income = 3
			}		
			if = {
				limit = { has_country_modifier = supreme_trade_power }
				add_years_of_income = 4
			}	
	}		
			
	option = {
		name = DO_trade_company_development.008.b		
			add_prestige = 10
	}		
}		

country_event = { # Crown Trade Company Management
	id = DO_trade_company_development.009
	title = DO_trade_company_development.009.t
	desc = DO_trade_company_development.009.d
	picture = COMPANY_BASE_eventPicture
	hidden = no
	
	trigger = {
			has_country_modifier = crown_trade_company 
	}		
	
	mean_time_to_happen = {
        days = 1825
	
	modifier = { 
			factor = 1.25
			has_active_policy = develop_our_trade_companies
	}
	
	modifier = { 
			factor = 1.5
			has_country_modifier = trade_company_thriving
			}
	}
	
	immediate = { remove_country_modifier = trade_company_thriving }
	
	option = {
		name = DO_trade_company_development.009.a
			
			random_list = {
				25 = {
					hidden_effect = {
						country_event = { 
							id = DO_trade_company_development.011
							days = 1
						}
					}
					add_country_modifier = {
						name = trade_company_failing
						duration = 3650
					}
				}
				75 = { }
			}	
	}		
			
	option = {
		name = DO_trade_company_development.009.b		
			
			if = {
				limit = { has_country_modifier = presence_in_eastern_trade }
				add_years_of_income = -0.025	
			}	
			if = {
				limit = { has_country_modifier = participant_in_eastern_trade }
				add_years_of_income = -0.05	
			}		
			if = {
				limit = { has_country_modifier = active_player_in_eastern_trade }
				add_years_of_income = -0.075	
			}				
			if = {
				limit = { has_country_modifier = recognized_trade_power }
				add_years_of_income = -0.1	
			}		
			if = {
				limit = { has_country_modifier = formidable_trade_power }
				add_years_of_income = -0.25	
			}		
			if = {
				limit = { has_country_modifier = dominant_trade_power }
				add_years_of_income = -0.35
			}		
			if = {
				limit = { has_country_modifier = supreme_trade_power }
				add_years_of_income = -0.5
			}
			random_list = {
				10 = {
					hidden_effect = {
						country_event = { id = DO_trade_company_development.010 days = 1 }											
					}
					add_country_modifier = {
						name = trade_company_thriving
						duration = -1
					}
				}
				75 = { }
			}
	}
	option = {
		name = DO_trade_company_development.009.c	
			
			if = {
				limit = { has_country_modifier = presence_in_eastern_trade }
				add_years_of_income = -0.05
			}	
			if = {
				limit = { has_country_modifier = participant_in_eastern_trade }
				add_years_of_income = -0.10	
			}		
			if = {
				limit = { has_country_modifier = active_player_in_eastern_trade }
				add_years_of_income = -0.15	
			}				
			if = {
				limit = { has_country_modifier = recognized_trade_power }
				add_years_of_income = -0.2	
			}		
			if = {
				limit = { has_country_modifier = formidable_trade_power }
				add_years_of_income = -0.5	
			}		
			if = {
				limit = { has_country_modifier = dominant_trade_power }
				add_years_of_income = -0.7
			}		
			if = {
				limit = { has_country_modifier = supreme_trade_power }
				add_years_of_income = -1.0
			}
			random_list = {
				50 = {
					hidden_effect = {
						country_event = { 
							id = DO_trade_company_development.010
							days = 1
						}
					}
					add_country_modifier = {
						name = trade_company_thriving
						duration = -1
					}
				}
				50 = { }
			}
	}		
}

country_event = { # Trade Company Thrives
	id = DO_trade_company_development.010
	title = DO_trade_company_development.010.t
	desc = DO_trade_company_development.010.d
	picture = COMPANY_BASE_eventPicture
	hidden = no
	is_triggered_only = yes
	
		option = {
		name = DO_trade_company_development.010.a	
			add_prestige = 5
		
		}
}

country_event = { # Trade Company fails
	id = DO_trade_company_development.011
	title = DO_trade_company_development.011.t
	desc = DO_trade_company_development.011.d
	picture = COMPANY_BASE_eventPicture
	hidden = no
	is_triggered_only = yes
	
		option = {
		name = DO_trade_company_development.011.a	
			add_prestige = -5
		
		}
}

province_event = { # European Trade Center
	id = DO_trade_company_development.012
	title = DO_trade_company_development.012.t
	desc = DO_trade_company_development.012.d
	picture = COMPANY_BASE_eventPicture
	hidden = no
	
		trigger = { has_province_modifier = ideal_european_port 
					is_owned_by_trade_company = yes 
					NOT = { has_province_modifier = european_trade_center }
					NOT = { has_province_modifier = major_european_trade_center }						
		}
	
		mean_time_to_happen = {
			days = 7300
		
			modifier = { 
				factor = 0.75
				owner = { has_active_policy = develop_our_trade_companies }
			}
			
			modifier = { 
				factor = 0.90
				base_tax = 10
			}
			modifier = { 
				factor = 0.90
				base_tax = 15
			}
			modifier = { 
				factor = 0.90
				base_tax = 20
			}
			modifier = { 
				factor = 0.90
				base_tax = 25
			}
			modifier = { 
				factor = 0.90
				base_tax = 30
			}
			modifier = { 
				factor = 0.5
				owner = { has_country_modifier = trade_company_thriving
				}
			}
			modifier = { 
				factor = 2
				owner = { has_country_modifier = trade_company_failing
				}
			}
		}	
		
		option = {
		name = DO_trade_company_development.012.a	
				
				add_province_modifier = { name = "european_trade_center"
								duration = 1825 }
				hidden_effect = { add_province_modifier = {
						name = "european_trade_center_maintenance"
						duration = 1700
						hidden = yes } }
				owner = { add_treasury = -1000 }
		}
		

		option = {
		name = DO_trade_company_development.012.b
				add_prestige = -3
		}
}

province_event = { # European Trade Center
	id = DO_trade_company_development.013
	title = DO_trade_company_development.013.t
	desc = DO_trade_company_development.013.d
	picture = COMPANY_BASE_eventPicture
	hidden = no
	
		trigger = { has_province_modifier = ideal_european_port 
					has_province_modifier = european_trade_center
					is_owned_by_trade_company = yes }
	
		mean_time_to_happen = {
			days = 7300
		
			modifier = { 
				factor = 0.75
				owner = { has_active_policy = develop_our_trade_companies }
			}
			
			modifier = { 
				factor = 0.90
				base_tax = 10
			}
			modifier = { 
				factor = 0.90
				base_tax = 15
			}
			modifier = { 
				factor = 0.90
				base_tax = 20
			}
			modifier = { 
				factor = 0.90
				base_tax = 25
			}
			modifier = { 
				factor = 0.90
				base_tax = 30
			}
			modifier = { 
				factor = 0.90
				base_tax = 35
			}
			modifier = { 
				factor = 0.5
				owner = { has_country_modifier = trade_company_thriving }
				
			}
			modifier = { 
				factor = 2
				owner = { has_country_modifier = trade_company_failing }
				
			}
		}	
		
		option = {
		name = DO_trade_company_development.013.a	
				add_province_modifier = { name = "major_european_trade_center"
								duration = 1825 }
				remove_province_modifier = european_trade_center
				hidden_effect = { add_province_modifier = {
						name = "major_european_trade_center_maintenance"
						duration = 1700
						hidden = yes } }
				owner = { add_treasury = -1500 }
		}

		option = {
		name = DO_trade_company_development.013.b
				add_prestige = -3
		}
}

province_event = { # European Trade Center Maintenance
	id = DO_trade_company_development.014
	title = DO_trade_company_development.014.t
	desc = DO_trade_company_development.014.d
	picture = COMPANY_BASE_eventPicture
	hidden = yes
	
		trigger = { has_province_modifier = european_trade_center 
					is_owned_by_trade_company = yes 
					NOT = { has_province_modifier = european_trade_center_maintenance }
		}
	
		mean_time_to_happen = {
			days = 1
		}
			
		immediate = { remove_province_modifier = european_trade_center 
						remove_province_modifier = european_trade_center_maintenance
		}
		
		option = {
		name = DO_trade_company_development.014.a	
				add_province_modifier = { name = european_trade_center
								duration = 1825 }
				add_province_modifier = {
						name = european_trade_center_maintenance
						duration = 1700
						hidden = yes }
		}
}	

province_event = { # European Trade Center Maintenance
	id = DO_trade_company_development.015
	title = DO_trade_company_development.015.t
	desc = DO_trade_company_development.015.d
	picture = COMPANY_BASE_eventPicture
	hidden = yes
	
		trigger = { has_province_modifier = major_european_trade_center 
					is_owned_by_trade_company = yes 
					NOT = { has_province_modifier = major_european_trade_center_maintenance }
		}
	
		mean_time_to_happen = {
			days = 1
		}
			
		immediate = { remove_province_modifier = major_european_trade_center 
						remove_province_modifier = major_european_trade_center_maintenance
		}
		
		option = {
		name = DO_trade_company_development.015.a	
				add_province_modifier = { name = major_european_trade_center
								duration = 1825 }
				add_province_modifier = {
						name = major_european_trade_center_maintenance
						duration = 1700
						hidden = yes }
		}
}

country_event = { # Accepted Culture Trade Company Development
	id = DO_trade_company_development.016
	title = DO_trade_company_development.016.t
	desc = DO_trade_company_development.016.d
	picture = COMPANY_BASE_eventPicture
	hidden = no
	
	trigger = {
			num_of_owned_provinces_with = {
					is_owned_by_trade_company = yes
					OR = { has_owner_accepted_culture = yes 
							has_owner_culture = yes }
					value = 1
			
			}
			has_country_flag = show_development
	}														
	mean_time_to_happen = {
        days = 14600

############## Country Size Modifiers ###############
	
		modifier = { 
			factor = 0.5
			num_of_owned_provinces_with = {
				is_owned_by_trade_company = yes
				OR = { has_owner_accepted_culture = yes 
							has_owner_culture = yes }
				value = 2
			}
			
		}
		modifier = { 
			factor =0.667
			num_of_owned_provinces_with = {
				is_owned_by_trade_company = yes
				OR = { has_owner_accepted_culture = yes 
							has_owner_culture = yes }
				value = 3
			}
		}
		modifier = { 
			factor = 0.75
			num_of_owned_provinces_with = {
				is_owned_by_trade_company = yes
				OR = { has_owner_accepted_culture = yes 
							has_owner_culture = yes }
				value = 4
			}
		}
		modifier = { 
			factor = 0.727
			num_of_owned_provinces_with = {
				is_owned_by_trade_company = yes
				OR = { has_owner_accepted_culture = yes 
							has_owner_culture = yes }
				value = 5
			}
		}
		modifier = { 
			factor = 0.687
			num_of_owned_provinces_with = {
				is_owned_by_trade_company = yes
				OR = { has_owner_accepted_culture = yes 
							has_owner_culture = yes }
				value = 6
			}
		}
		modifier = { 
			factor = 0.8
			num_of_owned_provinces_with = {
				is_owned_by_trade_company = yes
				OR = { has_owner_accepted_culture = yes 
							has_owner_culture = yes }
				value = 7
			}
		}		
		modifier = { 
			factor = 0.8
			num_of_owned_provinces_with = {
				is_owned_by_trade_company = yes
				OR = { has_owner_accepted_culture = yes 
							has_owner_culture = yes }
				value = 9
			}
		}
		modifier = { 
			factor = 0.837
			num_of_owned_provinces_with = {
				is_owned_by_trade_company = yes
				OR = { has_owner_accepted_culture = yes 
							has_owner_culture = yes }
				value = 11
			}
		}
		modifier = { 
			factor = 0.835
			num_of_owned_provinces_with = {
				is_owned_by_trade_company = yes
				OR = { has_owner_accepted_culture = yes 
							has_owner_culture = yes }
				value = 13
			}
		}
		modifier = { 
			factor = 0.81
			num_of_owned_provinces_with = {
				is_owned_by_trade_company = yes
				OR = { has_owner_accepted_culture = yes 
							has_owner_culture = yes }
				value = 16
			}
		}
		modifier = { 
			factor = 0.835
			num_of_owned_provinces_with = {
				is_owned_by_trade_company = yes
				OR = { has_owner_accepted_culture = yes 
							has_owner_culture = yes }
				value = 19
			}
		}
		modifier = { 
			factor = 0.843
			num_of_owned_provinces_with = {
				is_owned_by_trade_company = yes
				OR = { has_owner_accepted_culture = yes 
							has_owner_culture = yes }
				value = 23
			}
		}
		modifier = { 
			factor = 0.87
			num_of_owned_provinces_with = {
				is_owned_by_trade_company = yes
				OR = { has_owner_accepted_culture = yes 
							has_owner_culture = yes }
				value = 27
			}
		}
		modifier = { 
			factor = 0.87
			num_of_owned_provinces_with = {
				is_owned_by_trade_company = yes
				OR = { has_owner_accepted_culture = yes 
							has_owner_culture = yes }
				value = 31
			}
		}
		modifier = { 
			factor = 0.87
			num_of_owned_provinces_with = {
				is_owned_by_trade_company = yes
				OR = { has_owner_accepted_culture = yes 
							has_owner_culture = yes }
				value = 35
			}
		}
		modifier = { 
			factor = 0.89
			num_of_owned_provinces_with = {
				is_owned_by_trade_company = yes
				OR = { has_owner_accepted_culture = yes 
							has_owner_culture = yes }
				value = 39
			}
		}
		modifier = { 
			factor = 0.904
			num_of_owned_provinces_with = {
				is_owned_by_trade_company = yes
				OR = { has_owner_accepted_culture = yes 
							has_owner_culture = yes }
				value = 49
			}
		}
		modifier = { 
			factor = 0.911
			num_of_owned_provinces_with = {
				is_owned_by_trade_company = yes
				OR = { has_owner_accepted_culture = yes 
							has_owner_culture = yes }
				value = 54
			}
		}
		modifier = { 
			factor = 0.911
			num_of_owned_provinces_with = {
				is_owned_by_trade_company = yes
				OR = { has_owner_accepted_culture = yes 
							has_owner_culture = yes }
				value = 59
			}
		}
		modifier = { 
			factor = 0.912
			num_of_owned_provinces_with = {
				is_owned_by_trade_company = yes
				OR = { has_owner_accepted_culture = yes 
							has_owner_culture = yes }
				value = 65
			}
		}
		modifier = { 
			factor = 0.919
			num_of_owned_provinces_with = {
				is_owned_by_trade_company = yes
				OR = { has_owner_accepted_culture = yes 
							has_owner_culture = yes }
				value = 71
			}
		}
		modifier = { 
			factor = 0.925
			num_of_owned_provinces_with = {
				is_owned_by_trade_company = yes
				OR = { has_owner_accepted_culture = yes 
							has_owner_culture = yes }
				value = 77
			}
		}
		modifier = { 
			factor = 0.925
			num_of_owned_provinces_with = {
				is_owned_by_trade_company = yes
				OR = { has_owner_accepted_culture = yes 
							has_owner_culture = yes }
				value = 83
			}
		}
		modifier = { 
			factor = 0.925
			num_of_owned_provinces_with = {
				is_owned_by_trade_company = yes
				OR = { has_owner_accepted_culture = yes 
							has_owner_culture = yes }
				value = 90
			}
		}
		modifier = { 
			factor = 0.93
			num_of_owned_provinces_with = {
				is_owned_by_trade_company = yes
				OR = { has_owner_accepted_culture = yes 
							has_owner_culture = yes }
				value = 97
			}
		}
		modifier = { 
			factor = 0.934
			num_of_owned_provinces_with = {
				is_owned_by_trade_company = yes
				OR = { has_owner_accepted_culture = yes 
							has_owner_culture = yes }
				value = 104
			}
		}
		modifier = { 
			factor = 0.931
			num_of_owned_provinces_with = {
				is_owned_by_trade_company = yes
				OR = { has_owner_accepted_culture = yes 
							has_owner_culture = yes }
				value = 111
			}
		}
		modifier = { 
			factor = 0.924
			num_of_owned_provinces_with = {
				is_owned_by_trade_company = yes
				OR = { has_owner_accepted_culture = yes 
							has_owner_culture = yes }
				value = 120
			}
		}
		modifier = { 
			factor = 0.926
			num_of_owned_provinces_with = {
				is_owned_by_trade_company = yes
				OR = { has_owner_accepted_culture = yes 
							has_owner_culture = yes }
				value = 130
			}
		}
		modifier = { 
			factor = 0.931
			num_of_owned_provinces_with = {
				is_owned_by_trade_company = yes
				OR = { has_owner_accepted_culture = yes 
							has_owner_culture = yes }
				value = 140
			}
		}
		modifier = { 
			factor = 0.935
			num_of_owned_provinces_with = {
				is_owned_by_trade_company = yes
				OR = { has_owner_accepted_culture = yes 
							has_owner_culture = yes }
				value = 150
			}
		}
		modifier = { 
			factor = 0.940
			num_of_owned_provinces_with = {
				is_owned_by_trade_company = yes
				OR = { has_owner_accepted_culture = yes 
							has_owner_culture = yes }
				value = 160
			}
		}
		modifier = { 
			factor = 0.93
			num_of_owned_provinces_with = {
				is_owned_by_trade_company = yes
				OR = { has_owner_accepted_culture = yes 
							has_owner_culture = yes }
				value = 170
			}
		}
		modifier = { 
			factor = 0.922
			num_of_owned_provinces_with = {
				is_owned_by_trade_company = yes
				OR = { has_owner_accepted_culture = yes 
							has_owner_culture = yes }
				value = 185
			}
		}
		modifier = { 
			factor = 0.917
			num_of_owned_provinces_with = {
				is_owned_by_trade_company = yes
				OR = { has_owner_accepted_culture = yes 
							has_owner_culture = yes }
				value = 200
			}
		}
		modifier = { 
			factor = 0.913
			num_of_owned_provinces_with = {
				is_owned_by_trade_company = yes
				OR = { has_owner_accepted_culture = yes 
							has_owner_culture = yes }
				value = 220
			}
		}
		modifier = { 
			factor = 0.92
			num_of_owned_provinces_with = {
				is_owned_by_trade_company = yes
				OR = { has_owner_accepted_culture = yes 
							has_owner_culture = yes }
				value = 240
			}
		}
		modifier = { 
			factor = 0.926
			num_of_owned_provinces_with = {
				is_owned_by_trade_company = yes
				OR = { has_owner_accepted_culture = yes 
							has_owner_culture = yes }
				value = 260
			}
		}
		modifier = { 
			factor = 0.931
			num_of_owned_provinces_with = {
				is_owned_by_trade_company = yes
				OR = { has_owner_accepted_culture = yes 
							has_owner_culture = yes }
				value = 280
			}
		}
		modifier = { 
			factor = 0.921
			num_of_owned_provinces_with = {
				is_owned_by_trade_company = yes
				OR = { has_owner_accepted_culture = yes 
							has_owner_culture = yes }
				value = 300
			}
		}
		modifier = { 
			factor = 0.913
			num_of_owned_provinces_with = {
				is_owned_by_trade_company = yes
				OR = { has_owner_accepted_culture = yes 
							has_owner_culture = yes }
				value = 330
			}
		}
		
		
		############## Positive Modifiers ###############		
		
		modifier = { 
			factor = 2.0
			has_country_modifier = trade_company_failing
			
			}
		modifier = { 
			factor = 0.5
			has_country_modifier = private_trade_company
			
			}
		modifier = { 
			factor = 0.5
			has_country_modifier = trade_company_thriving
			}
		modifier = { 
			factor = 0.75
			has_active_policy = develop_our_trade_companies
		}
		
	}
		
	option = {
		name = DO_trade_company_development.016.a
		random_owned_province = {
			limit = { 
				is_owned_by_trade_company = yes
				OR = { has_owner_accepted_culture = yes 
							has_owner_culture = yes }
			}
#			random_list = {
#				40 = { add_base_tax = 1 }
#				20 = { add_base_production = 1}
#				40 = { }
#				}
			if = {
				limit = {
					owner = { has_country_modifier = trade_company_trade } }	
#				random_list = {
#				40 = { add_base_tax = 1 }
#				60 = { }
#				}
			}
			if = {
				limit = {
					owner = { has_country_modifier = trade_company_production } } 	
#				random_list = {
#				40 = { add_base_production = 1 }
#				60 = { }
#				}
			}
			if = {
				limit = {
					has_province_modifier = ideal_european_port }  	
#				random_list = {
#				10 = { add_base_tax = 1 }
#				90 = { }
#				}
			}
			if = {
				limit = {
					has_province_modifier = european_trade_center }  	
#				random_list = {
#				20 = { add_base_tax = 1 }
#				80 = { }
#				}
			}
			if = {
				limit = {
					has_province_modifier = major_european_trade_center }  	
#				random_list = {
#				40 = { add_base_tax = 1 }
#				60 = { }
#				}
			}
		}					
	}				
}			

country_event = { #Unaccepted Culture Trade Company Development
	id = DO_trade_company_development.017
	title = DO_trade_company_development.017.t
	desc = DO_trade_company_development.017.d
	picture = COMPANY_BASE_eventPicture
	hidden = no
	
	trigger = { num_of_owned_provinces_with = {
					is_owned_by_trade_company = yes
					NOT = { has_owner_accepted_culture = yes }
				   	NOT = { culture_group = ROOT }
					value = 1
				}		
				has_country_flag = show_development
	}		

	mean_time_to_happen = {
        days = 14600
	
		modifier = { 
			factor = 0.5
			num_of_owned_provinces_with = {
				is_owned_by_trade_company = yes
				NOT = { has_owner_accepted_culture = yes }
				NOT = { culture_group = ROOT }
				value = 2
			}
		}
		modifier = { 
			factor = 0.667
			num_of_owned_provinces_with = {
				is_owned_by_trade_company = yes
				NOT = { has_owner_accepted_culture = yes }
				NOT = { culture_group = ROOT }
				value = 3
			}
		}
		modifier = { 
			factor = 0.75
			num_of_owned_provinces_with = {
				is_owned_by_trade_company = yes
				NOT = { has_owner_accepted_culture = yes }
				NOT = { culture_group = ROOT }
				value = 4
			}
		}
		modifier = { 
			factor = 0.727
			num_of_owned_provinces_with = {
				NOT = { has_owner_accepted_culture = yes }
				NOT = { culture_group = ROOT }
				value = 5
			}
		}
		modifier = { 
			factor = 0.687
			num_of_owned_provinces_with = {
				NOT = { has_owner_accepted_culture = yes }
				NOT = { culture_group = ROOT }
				value = 6
			}
		}
		modifier = { 
			factor = 0.8
			num_of_owned_provinces_with = {
				NOT = { has_owner_accepted_culture = yes }
				NOT = { culture_group = ROOT }
				value = 7
			}
		}		
		modifier = { 
			factor = 0.8
			num_of_owned_provinces_with = {
				NOT = { has_owner_accepted_culture = yes }
				NOT = { culture_group = ROOT }
				value = 9
			}
		}
		modifier = { 
			factor = 0.837
			num_of_owned_provinces_with = {
				NOT = { has_owner_accepted_culture = yes }
				NOT = { culture_group = ROOT }
				value = 11
			}
		}
		modifier = { 
			factor = 0.835
			num_of_owned_provinces_with = {
				NOT = { has_owner_accepted_culture = yes }
				NOT = { culture_group = ROOT }
				value = 13
			}
		}
		modifier = { 
			factor = 0.81
			num_of_owned_provinces_with = {
				NOT = { has_owner_accepted_culture = yes }
				NOT = { culture_group = ROOT }
				value = 16
			}
		}
		modifier = { 
			factor = 0.835
			num_of_owned_provinces_with = {
				NOT = { has_owner_accepted_culture = yes }
				NOT = { culture_group = ROOT }
				value = 19
			}
		}
		modifier = { 
			factor = 0.843
			num_of_owned_provinces_with = {
				NOT = { has_owner_accepted_culture = yes }
				NOT = { culture_group = ROOT }
				value = 23
			}
		}
		modifier = { 
			factor = 0.87
			num_of_owned_provinces_with = {
				NOT = { has_owner_accepted_culture = yes }
				NOT = { culture_group = ROOT }
				value = 27
			}
		}
		modifier = { 
			factor = 0.87
			num_of_owned_provinces_with = {
				NOT = { has_owner_accepted_culture = yes }
				NOT = { culture_group = ROOT }
				value = 31
			}
		}
		modifier = { 
			factor = 0.87
			num_of_owned_provinces_with = {
				NOT = { has_owner_accepted_culture = yes }
				NOT = { culture_group = ROOT }
				value = 35
			}
		}
		modifier = { 
			factor = 0.89
			num_of_owned_provinces_with = {
				NOT = { has_owner_accepted_culture = yes }
				NOT = { culture_group = ROOT }
				value = 39
			}
		}
		modifier = { 
			factor = 0.904
			num_of_owned_provinces_with = {
				NOT = { has_owner_accepted_culture = yes }
				NOT = { culture_group = ROOT }
				value = 49
			}
		}
		modifier = { 
			factor = 0.911
			num_of_owned_provinces_with = {
				NOT = { has_owner_accepted_culture = yes }
				NOT = { culture_group = ROOT }
				value = 54
			}
		}
		modifier = { 
			factor = 0.911
			num_of_owned_provinces_with = {
				NOT = { has_owner_accepted_culture = yes }
				NOT = { culture_group = ROOT }
				value = 59
			}
		}
		modifier = { 
			factor = 0.912
			num_of_owned_provinces_with = {
				NOT = { has_owner_accepted_culture = yes }
				NOT = { culture_group = ROOT }
				value = 65
			}
		}
		modifier = { 
			factor = 0.919
			num_of_owned_provinces_with = {
				NOT = { has_owner_accepted_culture = yes }
				NOT = { culture_group = ROOT }
				value = 71
			}
		}
		modifier = { 
			factor = 0.925
			num_of_owned_provinces_with = {
				NOT = { has_owner_accepted_culture = yes }
				NOT = { culture_group = ROOT }
				value = 77
			}
		}
		modifier = { 
			factor = 0.925
			num_of_owned_provinces_with = {
				NOT = { has_owner_accepted_culture = yes }
				NOT = { culture_group = ROOT }
				value = 83
			}
		}
		modifier = { 
			factor = 0.925
			num_of_owned_provinces_with = {
				NOT = { has_owner_accepted_culture = yes }
				NOT = { culture_group = ROOT }
				value = 90
			}
		}
		modifier = { 
			factor = 0.93
			num_of_owned_provinces_with = {
				NOT = { has_owner_accepted_culture = yes }
				NOT = { culture_group = ROOT }
				value = 97
			}
		}
		modifier = { 
			factor = 0.934
			num_of_owned_provinces_with = {
				NOT = { has_owner_accepted_culture = yes }
				NOT = { culture_group = ROOT }
				value = 104
			}
		}
		modifier = { 
			factor = 0.931
			num_of_owned_provinces_with = {
				NOT = { has_owner_accepted_culture = yes }
				NOT = { culture_group = ROOT }
				value = 111
			}
		}
		modifier = { 
			factor = 0.924
			num_of_owned_provinces_with = {
				NOT = { has_owner_accepted_culture = yes }
				NOT = { culture_group = ROOT }
				value = 120
			}
		}
		modifier = { 
			factor = 0.926
			num_of_owned_provinces_with = {
				NOT = { has_owner_accepted_culture = yes }
				NOT = { culture_group = ROOT }
				value = 130
			}
		}
		modifier = { 
			factor = 0.931
			num_of_owned_provinces_with = {
				NOT = { has_owner_accepted_culture = yes }
				NOT = { culture_group = ROOT }
				value = 140
			}
		}
		modifier = { 
			factor = 0.935
			num_of_owned_provinces_with = {
				NOT = { has_owner_accepted_culture = yes }
				NOT = { culture_group = ROOT }
				value = 150
			}
		}
		modifier = { 
			factor = 0.940
			num_of_owned_provinces_with = {
				NOT = { has_owner_accepted_culture = yes }
				NOT = { culture_group = ROOT }
				value = 160
			}
		}
		modifier = { 
			factor = 0.93
			num_of_owned_provinces_with = {
				NOT = { has_owner_accepted_culture = yes }
				NOT = { culture_group = ROOT }
				value = 170
			}
		}
		modifier = { 
			factor = 0.922
			num_of_owned_provinces_with = {
				NOT = { has_owner_accepted_culture = yes }
				NOT = { culture_group = ROOT }
				value = 185
			}
		}
		modifier = { 
			factor = 0.917
			num_of_owned_provinces_with = {
				NOT = { has_owner_accepted_culture = yes }
				NOT = { culture_group = ROOT }
				value = 200
			}
		}
		modifier = { 
			factor = 0.913
			num_of_owned_provinces_with = {
				NOT = { has_owner_accepted_culture = yes }
				NOT = { culture_group = ROOT }
				value = 220
			}
		}
		modifier = { 
			factor = 0.92
			num_of_owned_provinces_with = {
				NOT = { has_owner_accepted_culture = yes }
				NOT = { culture_group = ROOT }
				value = 240
			}
		}
		modifier = { 
			factor = 0.926
			num_of_owned_provinces_with = {
				NOT = { has_owner_accepted_culture = yes }
				NOT = { culture_group = ROOT }
				value = 260
			}
		}
		modifier = { 
			factor = 0.931
			num_of_owned_provinces_with = {
				NOT = { has_owner_accepted_culture = yes }
				NOT = { culture_group = ROOT }
				value = 280
			}
		}
		modifier = { 
			factor = 0.921
			num_of_owned_provinces_with = {
				NOT = { has_owner_accepted_culture = yes }
				NOT = { culture_group = ROOT }
				value = 300
			}
		}
		modifier = { 
			factor = 0.913
			num_of_owned_provinces_with = {
				NOT = { has_owner_accepted_culture = yes }
				NOT = { culture_group = ROOT }
				value = 330
			}
		}
		modifier = { 
			factor = 0.92
			num_of_owned_provinces_with = {
				NOT = { has_owner_accepted_culture = yes }
				NOT = { culture_group = ROOT }
				value = 360
			}
		}
		modifier = { 
			factor = 0.904
			num_of_owned_provinces_with = {
				NOT = { has_owner_accepted_culture = yes }
				NOT = { culture_group = ROOT }
				value = 390
			}
		}
		modifier = { 
			factor = 0.883
			num_of_owned_provinces_with = {
				NOT = { has_owner_accepted_culture = yes }
				NOT = { culture_group = ROOT }
				value = 440
			}
		}
		modifier = { 
			factor = 0.854
			num_of_owned_provinces_with = {
				NOT = { has_owner_accepted_culture = yes }
				NOT = { culture_group = ROOT }
				value = 500
			}
		}

	############# Positive Modifiers ##############
	
		modifier = { 
			factor = 2.0
			has_country_modifier = trade_company_failing
			}
		modifier = { 
			factor = 0.5
			has_country_modifier = private_trade_company
			}
		modifier = { 
			factor = 0.5
			has_country_modifier = trade_company_thriving
			}
		modifier = { 
			factor = 0.75
			has_active_policy = develop_our_trade_companies
		}
	}
	
	
	
	option = {
		name = DO_trade_company_development.017.a
		random_owned_province = {
			limit = { is_owned_by_trade_company = yes
					NOT = { has_owner_accepted_culture = yes }
					NOT = { culture_group = ROOT }
			}
#			random_list = {
#				20 = { add_base_tax = 1 }
#				10 = { add_base_production = 1}
#				70 = { }
#			}
			if = {
				limit = {
					owner = { has_country_modifier = trade_company_trade } }	
#				random_list = {
#				20 = { add_base_tax = 1 }
#				80 = { }
#				}
			}
			if = {
				limit = {
					owner = { has_country_modifier = trade_company_production } } 	
#				random_list = {
#				20 = { add_base_production = 1 }
#				80 = { }
#				}
			}
			if = {
				limit = {
					has_province_modifier = ideal_european_port }  	
#				random_list = {
#				30 = { add_base_tax = 1 }
#				70 = { }
#				}
			}
			if = {
				limit = {
					has_province_modifier = european_trade_center }  	
#				random_list = {
#				20 = { add_base_tax = 1 }
#				80 = { }
#				}
			}
			if = {
				limit = {
					has_province_modifier = major_european_trade_center }  	
#				random_list = {
#				40 = { add_base_tax = 1 }
#				60 = { }
#				}
			}
		}					
	}					
}