
# Debates in Republics
country_event = {
	id = republics.1
	title = republics.1.t
	desc = republics.1.d
	picture = DEBATE_REPUBLICAN_eventPicture
	
	trigger = {
		government = republic
		NOT = { republican_tradition = 60 }
	}
	
	mean_time_to_happen = { years = 10 }
	
	option = {
		name = republics.1.a
		add_republican_tradition = -20
		random = {
			chance = 40
			add_stability_1 = yes
		}
	}
	option = {
		name = republics.1.b
		add_republican_tradition = 20
		random_list = {
			30 = {}
			40 = {
				subtract_stability_points_50 = yes
			}
			30 = {
				subtract_stability_1 = yes
			}
		}
	}
}

# Freetraders
country_event = {
	id = republics.2
	title = republics.2.t
	desc = republics.2.d
	picture = MERCHANTS_TALKING_eventPicture
	
	trigger = {
		government = republic
		NOT = { republican_tradition = 50 }
	}
	
	mean_time_to_happen = { years = 10 }
	
	option = {
		name = republics.2.a
		add_republican_tradition = 2
		add_mercantilism = -3
	}
	option = {
		name = republics.2.b
		add_republican_tradition = -2
		add_mercantilism = 3
	}
}

# Ruled by Despot
country_event = {
	id = republics.3
	title = republics.3.t
	desc = republics.3.d
	picture = COURT_eventPicture
	
	trigger = {
		government = republic
		OR = {
			NOT = { has_dlc = "Res Publica" }
			NOT = { government = administrative_republic }
		}
		is_colonial_nation = no
		OR = {
			AND = {
				NOT = { republican_tradition = 40 }
				has_dlc = "Res Publica"
			}
			NOT = { republican_tradition = 1 }
		}
		NOT = {
			government = revolutionary_republic
		}
	}
	
	mean_time_to_happen = {
		years = 20
		modifier = {
			factor = 0.5
			NOT = { republican_tradition = 30 }
		}
		modifier = {
			factor = 0.5
			NOT = { republican_tradition = 20 }
		}
		modifier = {
			factor = 0.5
			NOT = { republican_tradition = 10 }
		}
		modifier = {
			factor = 0.01
			NOT = { republican_tradition = 1 }
		}
	}
	
	option = {
		name = republics.3.a
		if = {
			limit = { NOT = { num_of_cities = 10 } is_tribal = no }
			change_government = despotic_monarchy
			change_title_3 = yes
		}
		if = {
			limit = { num_of_cities = 10 NOT = { num_of_cities = 50 } is_tribal = no }
			change_government = despotic_monarchy
			change_title_5 = yes
		}
		if = {
			limit = { num_of_cities = 50 is_tribal = no }
			change_government = despotic_monarchy
			change_title_6 = yes
		}
		if = {
			limit = { NOT = { num_of_cities = 10 } is_tribal = yes }
			change_government = tribal_monarchy
			change_title_3 = yes
		}
		if = {
			limit = { num_of_cities = 10 NOT = { num_of_cities = 15 } is_tribal = yes }
			change_government = tribal_monarchy
			change_title_5 = yes
		}
		if = {
			limit = { num_of_cities = 15 is_tribal = yes }
			change_government = tribal_monarchy
			change_title_6 = yes
		}
	}
}

# Ruled by Despot
country_event = {
	id = republics.100
	title = republics.3.t
	desc = republics.3.d
	picture = COURT_eventPicture
	
	trigger = {
		NOT = { republican_tradition = 1 }
		government = revolutionary_republic
	}
	
	mean_time_to_happen = { months = 1 }
	
	option = {
		name = republics.3.a
		change_government = revolutionary_empire
	}
}

# The Trial
country_event = {
	id = republics.4
	title = republics.4.t
	desc = republics.4.d
	picture = LIBERUM_VETO_eventPicture
	
	is_triggered_only = yes
	
	trigger = {
		government = republic
		OR = {
			NOT = { has_dlc = "Res Publica" }
			NOT = { government = administrative_republic }
		}
	}
	
	#	mean_time_to_happen = {
	#		days = 1
	#		modifier = {
	#			factor = 3.0
	#			is_at_war = yes
	#		}
	#	}
	
	option = {
		name = republics.4.a
		add_adm_power = -40
		add_dip_power = -40
		add_mil_power = -40
		add_republican_tradition = 5
	}
	
	option = {
		name = republics.4.b
		add_republican_tradition = -5
		add_adm_power = 10
		add_dip_power = 10
		add_mil_power = 10
	}
}

# A New Coin
country_event = {
	id = republics.5
	title = republics.5.t
	desc = republics.5.d
	picture = ECONOMY_eventPicture
	
	is_triggered_only = yes
	
	trigger = {
		government = republic
		OR = {
			NOT = { has_dlc = "Res Publica" }
			NOT = { government = administrative_republic }
		}
	}
	
	#	mean_time_to_happen = {
	#		days = 1
	#	}
	
	option = {
		name = republics.5.a
		add_inflation = 2
		add_republican_tradition = 20
	}
	
	option = {
		name = republics.5.b
		add_republican_tradition = -10
	}
}

# Foreign Plots?
country_event = {
	id = republics.6
	title = republics.6.t
	desc = republics.6.d
	picture = ANGRY_MOB_eventPicture
	
	is_triggered_only = yes
	
	trigger = {
		government = republic
		OR = {
			NOT = { has_dlc = "Res Publica" }
			NOT = { government = administrative_republic }
		}
	}
	
	#	mean_time_to_happen = {
	#		days = 1
	#		
	#		modifier = {
	#			factor = 1.5
	#			NOT = { years_of_income = 0.5 }
	#		}
	#	}
	
	option = {
		name = republics.6.a
		add_years_of_income = 0.5
		add_republican_tradition = -10
	}
	
	option = {
		name = republics.6.b
		random_list = {
			30 = {}
			40 = {
				subtract_stability_points_50 = yes
			}
			30 = {
				subtract_stability_1 = yes
			}
		}
	}
}

# Expand the Bodyguard
country_event = {
	id = republics.7
	title = republics.7.t
	desc = republics.7.d
	picture = COURT_eventPicture
	
	is_triggered_only = yes
	
	trigger = {
		government = republic
		OR = {
			NOT = { has_dlc = "Res Publica" }
			NOT = { government = administrative_republic }
		}
		NOT = { stability = 3 }
		NOT = { republican_tradition = 80 }
	}
	
	#	mean_time_to_happen = {
	#		days = 1
	#		
	#		modifier = {
	#			factor = 2
	#			NOT = { years_of_income = 0.5 }
	#		}
	#	}
	
	option = {
		name = republics.7.a
		random = {
			chance = 40
			add_stability_1 = yes
		}
		add_republican_tradition = -10
	}
	
	option = {
		name = republics.7.b
		add_republican_tradition = 5
	}
}

# The firebrand preacher
country_event = {
	id = republics.8
	title = republics.8.t
	desc = republics.8.d
	picture = STREET_SPEECH_eventPicture
	
	is_triggered_only = yes
	
	trigger = {
		government = republic
		OR = {
			NOT = { has_dlc = "Res Publica" }
			NOT = { government = administrative_republic }
		}
		religion_group = christian
		is_at_war = yes
		war_exhaustion = 10
	}
	
	#	mean_time_to_happen = {
	#		days = 1
	#	}
	
	option = {
		name = republics.8.a
		add_war_exhaustion = -10
		add_republican_tradition = -10
	}
	
	option = {
		name = republics.8.b
		random_list = {
			30 = {}
			40 = {
				subtract_stability_points_50 = yes
			}
			30 = {
				subtract_stability_1 = yes
			}
		}
	}
}

# Noble Plot
country_event = {
	id = republics.9
	title = republics.9.t
	desc = republics.9.d
	picture = DEBATE_REPUBLICAN_eventPicture
	
	is_triggered_only = yes
	
	trigger = {
		government = republic
		OR = {
			NOT = { has_dlc = "Res Publica" }
			NOT = { government = administrative_republic }
		}
		NOT = { republican_tradition = 80 }
	}
	
	#	mean_time_to_happen = {
	#		days = 1
	#		modifier = {
	#			factor = 1.5
	#			NOT = { republican_tradition = 70 }
	#		}
	#		modifier = {
	#			factor = 2.0
	#			NOT = { republican_tradition = 50 }
	#		}
	#		modifier = {
	#			factor = 3.0
	#			NOT = { republican_tradition = 30 }
	#		}
	#		modifier = {
	#			factor = 5.0
	#			NOT = { republican_tradition = 10 }
	#		}
	#	}
	
	option = {
		name = republics.9.a
		random_list = {
			30 = {}
			40 = {
				subtract_stability_points_50 = yes
			}
			30 = {
				subtract_stability_1 = yes
			}
		}
	}
}

# Splits in the Council
country_event = {
	id = republics.10
	title = republics.10.t
	desc = republics.10.d
	picture = LIBERUM_VETO_eventPicture
	
	is_triggered_only = yes
	
	trigger = {
		government = republic
		OR = {
			NOT = { has_dlc = "Res Publica" }
			NOT = { government = administrative_republic }
		}
		NOT = { republican_tradition = 80 }
	}
	
	#	mean_time_to_happen = {
	#		days = 1
	#		modifier = {
	#			factor = 1.5
	#			NOT = { republican_tradition = 70 }
	#		}
	#		modifier = {
	#			factor = 2.0
	#			NOT = { republican_tradition = 50 }
	#		}
	#		modifier = {
	#			factor = 3.0
	#			NOT = { republican_tradition = 30 }
	#		}
	#		modifier = {
	#			factor = 5.0
	#			NOT = { republican_tradition = 10 }
	#		}
	#	}
	
	option = {
		name = republics.10.a
		add_mil_power = -50
	}
}

#Disputes effecting governments
country_event = {
	id = republics.11
	title = republics.11.t
	desc = republics.11.d
	picture = LIBERUM_VETO_eventPicture
	
	is_triggered_only = yes
	
	trigger = {
		government = republic
		OR = {
			NOT = { has_dlc = "Res Publica" }
			NOT = { government = administrative_republic }
		}
		NOT = { republican_tradition = 80 }
	}
	
	#	mean_time_to_happen = {
	#		days = 1
	#		modifier = {
	#			factor = 1.5
	#			NOT = { republican_tradition = 70 }
	#		}
	#		modifier = {
	#			factor = 2.0
	#			NOT = { republican_tradition = 50 }
	#		}
	#		modifier = {
	#			factor = 3.0
	#			NOT = { republican_tradition = 30 }
	#		}
	#		modifier = {
	#			factor = 5.0
	#			NOT = { republican_tradition = 10 }
	#		}
	#	}
	
	option = {
		name = republics.11.a
		add_adm_power = -50
	}
}

# Trade Wars
country_event = {
	id = republics.12
	title = republics.12.t
	desc = republics.12.d
	picture = MERCHANTS_TALKING_eventPicture
	
	is_triggered_only = yes
	
	trigger = {
		government = republic
		OR = {
			NOT = { has_dlc = "Res Publica" }
			NOT = { government = administrative_republic }
		}
		NOT = { republican_tradition = 80 }
	}
	
	#	mean_time_to_happen = {
	#		days = 1
	#		modifier = {
	#			factor = 1.5
	#			NOT = { republican_tradition = 70 }
	#		}
	#		modifier = {
	#			factor = 2.0
	#			NOT = { republican_tradition = 50 }
	#		}
	#		modifier = {
	#			factor = 3.0
	#			NOT = { republican_tradition = 30 }
	#		}
	#		modifier = {
	#			factor = 5.0
	#			NOT = { republican_tradition = 10 }
	#		}
	#	}
	
	option = {
		name = republics.12.a
		add_dip_power = -50
	}
}

#Ceremony Disrupted
country_event = {
	id = republics.13
	title = republics.13.t
	desc = republics.13.d
	picture = LIBERUM_VETO_eventPicture
	
	is_triggered_only = yes
	
	trigger = {
		government = republic
		OR = {
			NOT = { has_dlc = "Res Publica" }
			NOT = { government = administrative_republic }
		}
		NOT = { republican_tradition = 80 }
	}
	
	#	mean_time_to_happen = {
	#		days = 1
	#		modifier = {
	#			factor = 1.5
	#			NOT = { republican_tradition = 70 }
	#		}
	#		modifier = {
	#			factor = 2.0
	#			NOT = { republican_tradition = 50 }
	#		}
	#		modifier = {
	#			factor = 3.0
	#			NOT = { republican_tradition = 30 }
	#		}
	#		modifier = {
	#			factor = 5.0
	#			NOT = { republican_tradition = 10 }
	#		}
	#	}
	
	option = {
		name = republics.13.a
		add_prestige = -10
	}
}

# Trade Focus

# Trade Expansion
country_event = {
	id = republics.15
	title = "EVTNAME9551"
	desc = "EVTDESC9551"
	picture = MERCHANTS_TALKING_eventPicture
	
	is_triggered_only = yes
	
	trigger = {
		OR = {
			government = merchant_republic
			government = venetian_republic
			government = oligarchic_republic
			government = merchant_oligarchic_republic
		}
		num_of_ports = 1
		NOT = { colony = 1 }
		trade_ideas = 2
		OR = {
			north_america = { has_discovered = ROOT }
			south_america = { has_discovered = ROOT }
			spice_islands_group = { has_discovered = ROOT }
		}
		NOT = {
			has_country_modifier = local_trade_focus
		}
		NOT = {
			has_country_modifier = global_trade_focus
		}
	}
	
	#	mean_time_to_happen = {
	#		days = 1
	#		
	#		modifier = {
	#			factor = 0.9
	#			mil = 4
	#		}
	#		modifier = {
	#			factor = 0.9
	#			mil = 5
	#		}
	#		modifier = {
	#			factor = 0.9
	#			mil = 6
	#		}
	#		modifier = {
	#			factor = 1.1
	#			NOT = { mil = 1 }
	#		}
	#		modifier = {
	#			factor = 0.9
	#			has_idea = quest_for_the_new_world
	#		}
	#		modifier = {
	#			factor = 0.9
	#			has_idea = merchant_adventures
	#		}
	#		modifier = {
	#			factor = 0.9
	#			has_idea = land_of_opportunity
	#		}
	#		modifier = {
	#			factor = 0.9
	#			has_idea = colonial_ventures
	#		}
	#	}
	
	option = {
		name = "EVTOPTA9551" #Local trade is where our focus should be
		ai_chance = { factor = 55 }
		add_country_modifier = {
			name = "local_trade_focus"
			duration = 365
		}
	}
	option = {
		name = "EVTOPTB9551" #Perhaps it's time to broaden our horizons
		ai_chance = { factor = 45 }
		add_country_modifier = {
			name = "global_trade_focus"
			duration = 365
		}
	}
}

# Budgetary Disagreements
country_event = {
	id = republics.16
	title = "EVTNAME9552"
	desc = "EVTDESC9552"
	picture = ECONOMY_eventPicture
	
	is_triggered_only = yes
	
	trigger = {
		OR = {
			government = merchant_republic
			government = venetian_republic
			government = oligarchic_republic
			government = merchant_oligarchic_republic
		}
		NOT = { advisor = treasurer }
		NOT = { adm = 1 }
		NOT = {
			has_country_modifier = budgetary_disagreements_timer
		}
	}
	
	#	mean_time_to_happen = {
	#		days = 1
	#		
	#		modifier = {
	#			factor = 0.8
	#			NOT = { stability = -1 }
	#		}
	#		modifier = {
	#			factor = 0.8
	#			NOT = { stability = -2 }
	#		}
	#		modifier = {
	#			factor = 1.2
	#			stability = 2
	#		}
	#		modifier = {
	#			factor = 1.2
	#			stability = 3
	#		}
	#		modifier = {
	#			factor = 0.8
	#			num_of_loans = 1
	#		}
	#		modifier = {
	#			factor = 0.9
	#			num_of_loans = 2
	#		}
	#		modifier = {
	#			factor = 0.9
	#			NOT = { trade_efficiency = 0.3 }
	#		}
	#		modifier = {
	#			factor = 0.9
	#			NOT = { trade_efficiency = 0.2 }
	#		}
	#		modifier = {
	#			factor = 1.1
	#			trade_efficiency = 0.7
	#		}
	#		modifier = {
	#			factor = 1.1
	#			trade_efficiency = 0.8
	#		}
	#		modifier = {
	#			factor = 0.9
	#			NOT = { production_efficiency = 0.3 }
	#		}
	#		modifier = {
	#			factor = 0.9
	#			NOT = { production_efficiency = 0.2 }
	#		}
	#		modifier = {
	#			factor = 1.1
	#			production_efficiency = 0.7
	#		}
	#		modifier = {
	#			factor = 1.1
	#			production_efficiency = 0.8
	#		}
	#	}
	
	option = {
		name = "EVTOPTA9552" # Invest it all in research
		ai_chance = { factor = 55 }
		add_dip_power = 35
		hidden_effect = {
			add_country_modifier = {
				name = budgetary_disagreements_timer
				duration = 5
				hidden = yes
			}
		}
	}
	option = {
		name = "EVTOPTB9552" # Save some for future expenses
		ai_chance = { factor = 45 }
		add_years_of_income = 0.10
		hidden_effect = {
			add_country_modifier = {
				name = budgetary_disagreements_timer
				duration = 5
				hidden = yes
			}
		}
	}
}

# Disagreements in the Parliament
country_event = {
	id = republics.17
	title = "EVTNAME9553"
	desc = "EVTDESC9553"
	picture = DEBATE_REPUBLICAN_eventPicture
	
	is_triggered_only = yes
	
	trigger = {
		NOT = {
			has_country_modifier = disagreements_in_the_parliament_timer
		}
		OR = {
			government = merchant_republic
			government = venetian_republic
			government = oligarchic_republic
			government = merchant_oligarchic_republic
		}
		NOT = {
			any_active_trade_node = {
				has_most_province_trade_power = root
			}
		}
		OR = {
			treasury = 250
			monthly_income = 50
		}
	}
	
	#	mean_time_to_happen = {
	#		days = 1
	#		
	#		modifier = {
	#			factor = 0.9
	#			mercantilism = 80
	#		}
	#		modifier = {
	#			factor = 0.9
	#			mercantilism = 90
	#		}
	#		modifier = {
	#			factor = 0.9
	#			mercantilism = 100
	#		}
	#		modifier = {
	#			factor = 0.9
	#			trade_efficiency = 0.7
	#		}
	#		modifier = {
	#			factor = 0.9
	#			trade_efficiency = 0.8
	#		}
	#		modifier = {
	#			factor = 1.1
	#			NOT = { trade_efficiency = 0.3 }
	#		}
	#		modifier = {
	#			factor = 1.1
	#			NOT = { trade_efficiency = 0.2 }
	#		}
	#		modifier = {
	#			factor = 1.1
	#			NOT = { production_efficiency = 0.3 }
	#		}
	#		modifier = {
	#			factor = 1.1
	#			NOT = { production_efficiency = 0.2 }
	#		}
	#		modifier = {
	#			factor = 0.9
	#			advisor = trader
	#		}
	#	}
	
	option = {
		name = "EVTOPTA9553" # Try to mediate between the two parties
		ai_chance = { factor = 55 }
		hidden_effect = {
			add_country_modifier = {
				name = disagreements_in_the_parliament_timer
				duration = 3650
				hidden = yes
			}
		}
		add_republican_tradition = 1
		add_dip_power = -25
		add_mil_power = -25
	}
	option = {
		name = "EVTOPTB9553" # Propose some other changes
		ai_chance = { factor = 45 }
		hidden_effect = {
			add_country_modifier = {
				name = disagreements_in_the_parliament_timer
				duration = 3650
				hidden = yes
			}
		}
		random_list = {
			30 = {}
			40 = {
				subtract_stability_points_50 = yes
			}
			30 = {
				subtract_stability_1 = yes
			}
		}
	}
}

# Misdirected Focus
country_event = {
	id = republics.18
	title = "EVTNAME9554"
	desc = "EVTDESC9554"
	picture = DEBATE_REPUBLICAN_eventPicture
	
	is_triggered_only = yes
	
	trigger = {
		NOT = {
			has_country_modifier = military_focus
		}
		NOT = {
			has_country_modifier = trade_focus
		}
		OR = {
			government = merchant_republic
			government = venetian_republic
			government = oligarchic_republic
			government = merchant_oligarchic_republic
		}
		NOT = { trade_income_percentage = 0.25 }
		is_at_war = yes
	}
	
	#	mean_time_to_happen = {
	#		days = 1
	#
	#		modifier = {
	#			factor = 0.9
	#			NOT = { trade_efficiency = 0.4 }
	#		}
	#		modifier = {
	#			factor = 0.9
	#			NOT = { trade_efficiency = 0.3 }
	#		}
	#		modifier = {
	#			factor = 0.9
	#			NOT = { trade_efficiency = 0.2 }
	#		}
	#		modifier = {
	#			factor = 0.9
	#			mercantilism = 80
	#		}
	#		modifier = {
	#			factor = 0.9
	#			mercantilism = 90
	#		}
	#		modifier = {
	#			factor = 0.9
	#			mercantilism = 100
	#		}
	#		modifier = {
	#			factor = 1.1
	#			NOT = { mercantilism = 30 }
	#		}
	#		modifier = {
	#			factor = 1.1
	#			NOT = { mercantilism = 20 }
	#		}
	#		modifier = {
	#			factor = 1.1
	#			NOT = { mercantilism = 10 }
	#		}
	#		modifier = {
	#			factor = 0.9
	#			advisor = trader
	#		}
	#		modifier = {
	#			factor = 0.9
	#			num_of_merchants = 5
	#		}
	#		modifier = {
	#			factor = 0.9
	#			num_of_merchants = 4
	#		}
	#	}
	
	option = {
		name = "EVTOPTA9554"		# It's all according to plan
		ai_chance = { factor = 55 }
		add_country_modifier = {
			name = "military_focus"
			duration = 730
		}
		add_republican_tradition = -3
	}
	option = {
		name = "EVTOPTB9554"		# Perhaps our focus has been a bit misdirected
		ai_chance = { factor = 45 }
		add_country_modifier = {
			name = "trade_focus"
			duration = 730
		}
		add_adm_power = -10
	}
}

# Parliamentary Problems
country_event = {
	id = republics.19
	title = "EVTNAME9555"
	desc = "EVTDESC9555"
	picture = ADVISOR_eventPicture
	
	is_triggered_only = yes
	
	trigger = {
		NOT = {
			has_country_modifier = parliamentary_problems_timer
		}
		government = administrative_republic
		statesman = 1
		NOT = { statesman = 2 }
	}
	
	#	mean_time_to_happen = {
	#		days = 1
	#
	#		modifier = {
	#			factor = 0.9
	#			NOT = { innovativeness_ideas = 2 }
	#		}
	#		modifier = {
	#			factor = 0.9
	#			NOT = { innovativeness_ideas = 1 }
	#		}
	#		modifier = {
	#			factor = 1.1
	#			innovativeness_ideas = 7
	#		}
	#		modifier = {
	#			factor = 0.9
	#			NOT = { adm = 2 }
	#		}
	#		modifier = {
	#			factor = 0.9
	#			NOT = { adm = 1 }
	#		}
	#		modifier = {
	#			factor = 1.1
	#			adm = 4
	#		}
	#		modifier = {
	#			factor = 1.1
	#			adm = 5
	#		}
	#		modifier = {
	#			factor = 1.1
	#			adm = 6
	#		}
	#	}
	
	option = {
		name = "EVTOPTA9555" # Find someone to replace him
		ai_chance = { factor = 55 }
		hidden_effect = {
			add_country_modifier = {
				name = parliamentary_problems_timer
				duration = 1825
				hidden = yes
			}
		}
		remove_advisor = statesman
		define_advisor = {
			type = statesman
			skill = 1
			discount = yes
		}
		add_republican_tradition = -1
	}
	option = {
		name = "EVTOPTB9555" # Give him another chance
		ai_chance = { factor = 45 }
		hidden_effect = {
			add_country_modifier = {
				name = parliamentary_problems_timer
				duration = 1825
				hidden = yes
			}
		}
		random_list = {
			30 = {}
			40 = {
				subtract_stability_points_50 = yes
			}
			30 = {
				subtract_stability_1 = yes
			}
		}
		add_republican_tradition = 1
	}
}

# Heated Debates
country_event = {
	id = republics.20
	title = "EVTNAME9556"
	desc = "EVTDESC9556"
	picture = DEBATE_REPUBLICAN_eventPicture
	
	is_triggered_only = yes
	
	trigger = {
		NOT = {
			has_country_modifier = heated_debates_timer
		}
		government = administrative_republic
	}
	
	#	mean_time_to_happen = {
	#		days = 1
	#
	#		modifier = {
	#			factor = 0.9
	#			is_at_war = yes
	#		}
	#		modifier = {
	#			factor = 0.9
	#			NOT = { stability = -1 }
	#		}
	#		modifier = {
	#			factor = 0.9
	#			NOT = { stability = -2 }
	#		}
	#		modifier = {
	#			factor = 1.1
	#			stability = 3
	#		}
	#		modifier = {
	#			factor = 1.1
	#			stability = 2
	#		}
	#		modifier = {
	#			factor = 1.1
	#			adm = 4
	#		}
	#		modifier = {
	#			factor = 1.1
	#			adm = 5
	#		}
	#		modifier = {
	#			factor = 1.1
	#			adm = 6
	#		}
	#	}
	
	option = {
		name = "EVTOPTA9556" # That is probably wise
		ai_chance = { factor = 55 }
		hidden_effect = {
			add_country_modifier = {
				name = heated_debates_timer
				duration = 1825
				hidden = yes
			}
		}
		add_years_of_income = -0.25
	}
	option = {
		name = "EVTOPTB9556" # It's not really a problem
		ai_chance = { factor = 45 }
		hidden_effect = {
			add_country_modifier = {
				name = heated_debates_timer
				duration = 1825
				hidden = yes
			}
		}
		random_list = {
			30 = {}
			40 = {
				subtract_stability_points_50 = yes
			}
			30 = {
				subtract_stability_1 = yes
			}
		}
	}
}

# Conflicting Opinions
country_event = {
	id = republics.22
	title = "EVTNAME9558"
	desc = "EVTDESC9558"
	picture = DEBATE_REPUBLICAN_eventPicture
	
	is_triggered_only = yes
	
	trigger = {
		NOT = {
			has_country_modifier = conflicting_opinions_timer
		}
		government = administrative_republic
		OR = {
			NOT = { mil = 2 }
			NOT = { adm = 2 }
		}
	}
	
	#	mean_time_to_happen = {
	#		days = 1
	#
	#		modifier = {
	#			factor = 1.1
	#			economic_ideas = 7
	#		}
	#		modifier = {
	#			factor = 0.9
	#			NOT = { economic_ideas = 1 }
	#		}
	#		modifier = {
	#			factor = 0.9
	#			num_of_rebel_controlled_provinces = 1
	#		}
	#		modifier = {
	#			factor = 0.9
	#			num_of_rebel_controlled_provinces = 2
	#		}
	#		modifier = {
	#			factor = 1.1
	#			advisor = statesman
	#		}
	#		modifier = {
	#			factor = 1.1
	#			statesman = 3
	#		}
	#	}
	
	option = {
		name = "EVTOPTA9558" # It's probably best to leave things as they are
		ai_chance = { factor = 55 }
		hidden_effect = {
			add_country_modifier = {
				name = conflicting_opinions_timer
				duration = 3650
				hidden = yes
			}
		}
		add_prestige = -8
	}
	option = {
		name = "EVTOPTB9558" # Some restructuring might be needed
		ai_chance = { factor = 45 }
		hidden_effect = {
			add_country_modifier = {
				name = conflicting_opinions_timer
				duration = 3650
				hidden = yes
			}
		}
		random_list = {
			30 = {}
			40 = {
				subtract_stability_points_50 = yes
			}
			30 = {
				subtract_stability_1 = yes
			}
		}
	}
}

# An infiltrator in Parliament
country_event = {
	id = republics.23
	title = "EVTNAME9559"
	desc = "EVTDESC9559"
	picture = LIBERUM_VETO_eventPicture
	
	is_triggered_only = yes
	
	trigger = {
		NOT = {
			has_country_modifier = traitor_in_parliament_timer
		}
		government = administrative_republic
		any_known_country = {
			war_with = ROOT
			OR = {
				advisor = spymaster
				advisor = inquisitor
			}
		}
	}
	
	#	mean_time_to_happen = {
	#		days = 1
	#
	#		modifier = {
	#			factor = 0.9
	#			NOT = { stability = -1 }
	#		}
	#		modifier = {
	#			factor = 0.9
	#			NOT = { stability = -2 }
	#		}
	#		modifier = {
	#			factor = 0.9
	#			war_exhaustion = 2
	#		}
	#		modifier = {
	#			factor = 0.9
	#			war_exhaustion = 4
	#		}
	#		modifier = {
	#			factor = 0.9
	#			war_exhaustion = 6
	#		}
	#		modifier = {
	#			factor = 0.9
	#			war_exhaustion = 8
	#		}
	#		modifier = {
	#			factor = 1.1
	#			stability = 2
	#		}
	#		modifier = {
	#			factor = 1.1
	#			stability = 3
	#		}
	#		modifier = {
	#			factor = 1.1
	#			adm = 6
	#		}
	#		modifier = {
	#			factor = 1.1
	#			adm = 5
	#		}
	#		modifier = {
	#			factor = 1.1
	#			adm = 4
	#		}
	#	}
	
	option = {
		name = "EVTOPTA9559"		# That's not possible
		ai_chance = { factor = 55 }
		hidden_effect = {
			add_country_modifier = {
				name = traitor_in_parliament_timer
				duration = 1825
				hidden = yes
			}
		}
		every_country = {
			limit = { war_with = ROOT }
			add_army_tradition = 5
		}
	}
	option = {
		name = "EVTOPTB9559"		# That's the only reasonable explanation
		ai_chance = { factor = 45 }
		hidden_effect = {
			add_country_modifier = {
				name = traitor_in_parliament_timer
				duration = 1825
				hidden = yes
			}
		}
		capital_scope = {
			hidden_effect = {
				set_variable = { which = added_unrest value = 2 }
				add_base_unrest = yes
			}
			custom_tooltip = added_unrest_2
		}
	}
}
