#Venetian events

#Establishment of the casino in Venezia
country_event = {
	id = hee_VEN.1
	title = hee_VEN.1.t
	desc = hee_VEN.1.d
	picture = GREAT_BUILDING_eventPicture
	
	fire_only_once = yes
	
	trigger = {
		tag = VEN
		owns_core_province = 112 # Venexia
		is_year = 1630
		NOT = { is_year = 1680 }
		government = venetian_republic
	}
	
	mean_time_to_happen = { years = 20 }
	
	option = {
		name = hee_VEN.1.a
		add_years_of_income = 0.5
		add_prestige = 5
	}
}
