# 2257 - Shaan-gan Ganzhou

owner = QIN
controller = QIN

capital = "Zhangye"
trade_goods = millet
culture = lanyin
religion = mahayana

hre = no

base_tax = 13
base_production = 5
base_manpower = 1

is_city = yes
road_network = yes
urban_infrastructure_2 = yes
merchant_guild = yes
fort_14th = yes

discovered_by = chinese
discovered_by = steppestech

450.1.1 = {
	add_permanent_province_modifier = {
		name = great_wall_ruins
		duration = -1
	}
	set_province_flag = silk_road_town
	set_province_flag = good_natural_place
	add_permanent_province_modifier = {
		name = "zanghye_silk_road"
		duration = -1
	}
}
1271.12.18 = {
	add_core = YUA
} # Proclamation of Yuan dynasty
1280.1.1 = {
	owner = QIN
	controller = QIN
	add_core = QIN
} # Warlord state Qin
#1356.1.1 = {
#	remove_core = YUA # Red Turbans
#}
1368.1.1 = {
	owner = MNG
	controller = MNG
	add_core = MNG
	remove_core = QIN
}
1520.2.2 = {
	base_tax = 19
	base_production = 8
	base_manpower = 3
}
1530.1.1 = {
	fort_14th = no
	fort_15th = yes
}
1539.1.1 = {
	remove_province_modifier = great_wall_ruins
	add_permanent_province_modifier = {
		name = great_wall_full
		duration = -1
	}
}
1643.11.1 = {
	owner = DSH
	controller = DSH
	add_core = DSH
}
1645.3.1 = {
	owner = QNG
	controller = QNG
	add_core = QNG
#	remove_core = MNG
	remove_core = DSH
} # The Qing Dynasty
1662.1.1 = {
	remove_core = MNG
}
