# 2272 - Ningbo

owner = YUA
controller = YUA

capital = "Yin"
trade_goods = fish #silk
culture = wuhan
religion = confucianism

hre = no

base_tax = 60
base_production = 6
base_manpower = 3

is_city = yes
road_network = yes
urban_infrastructure_1 = yes
harbour_infrastructure_1 = yes
corporation_guild = yes

discovered_by = chinese
discovered_by = steppestech

500.1.1 = {
	add_permanent_province_modifier = {
		name = "ningbo_natural_harbour"
		duration = -1
	}
	set_province_flag = has_natural_harbour
	set_province_flag = has_small_natural_harbour
	set_province_flag = good_natural_place
	add_permanent_province_modifier = {
		name = urban_goods_silk
		duration = -1
	}
}
985.1.1 = {
	owner = SNG
	controller = SNG
	add_core = SNG
}
1276.1.1 = {
	owner = YUA
	controller = YUA
	add_core = YUA
}
1320.1.1 = {
	remove_core = SNG
}
1351.1.1 = {
	owner = CEN
	controller = CEN
	add_core = CEN
}
1367.1.1 = {
	owner = MNG
	controller = MNG
	remove_core = CEN
	remove_core = ZOU
	remove_core = YUA
}
1520.2.2 = {
	base_tax = 100
	base_production = 5
	base_manpower = 3
}
#1530.1.1 = {
#	library = yes
#} # Tian Yi Ge
1645.6.25 = {
	owner = QNG
	controller = QNG
	add_core = QNG
} # The Qing Dynasty
#1662.1.1 = {
#	owner = QNG
#	controller = QNG
#	add_core = QNG
#	remove_core = MNG
#} # The Qing Dynasty
1662.1.1 = {
	remove_core = MNG
}
