# 2436 - Mino

owner = TKI
controller = TKI
add_core = TKI

capital = "Gifu"
trade_goods = rice
culture = chubu
religion = mahayana #shinbutsu

hre = no

base_tax = 20
base_production = 1
base_manpower = 1

is_city = yes
warehouse = yes
workshop = yes
town_hall = yes
local_fortification_1 = yes

discovered_by = chinese

#Mino School

450.1.1 = {
	add_permanent_province_modifier = {
		name = urban_goods_steel
		duration = -1
	}
}
1501.1.1 = {
	base_tax = 34
	base_production = 2
	base_manpower = 3
}
1542.1.1 = {
	discovered_by = POR
}
1582.1.1 = {
	owner = ODA
	controller = ODA
}
1615.6.4 = {
	owner = JAP
	controller = JAP
	add_core = JAP
}
