# 2722 - Dera Ismail Khan

owner = MUL
controller = MUL
add_core = MUL

capital = "Bannu"
trade_goods = wool
culture = pashtun
religion = sunni

hre = no

base_tax = 12
base_production = 0
base_manpower = 0

is_city = yes

discovered_by = indian
discovered_by = muslim
discovered_by = steppestech
discovered_by = turkishtech

450.1.1 = {
	set_province_flag = tribals_control_province
}
1356.1.1 = {
	#owner = DLH
	#controller = DLH
	#add_core = DLH
	add_core = PTA
}
1398.8.1 = {
	revolt = { }
	controller = TIM
}
1399.1.1 = {
	owner = MUL
	controller = MUL
}
1414.1.1 = {
	owner = DLH
	controller = DLH
	remove_core = MUL
}
1419.1.1 = {
	owner = MUL
	controller = MUL
	add_core = MUL
	remove_core = PUN
	remove_core = DLH
}
#1443.1.1 = {
#	revolt = {
#		type = pretender_rebels
#		leader = "Bahlul Lodi"
#	}
#	controller = REB
#} #First revolt of Bahlul Lodi
#1445.1.1 = {
#	controller = DLH
#	revolt = { }
#} #Bahlul Lodi returns to the Punjab
#1447.1.1 = {
#	revolt = {
#		type = pretender_rebels
#		leader = "Bahlul Lodi"
#	}
#	controller = REB
#} #Second revolt of Bahlul Lodi
#1448.1.1 = {
#	controller = DLH
#	revolt = { }
#} #Bahlul Lodi returns to the Punjab
#1451.4.20 = {
#	controller = DLH
#	owner = DLH
#	revolt = { }
#} #Final triumph of the Lodi
1511.1.1 = {
	base_tax = 16
}
1526.4.21 = {
	owner = MUG
	controller = MUG
	add_core = MUG
	remove_core = TIM
} #Battle of Panipat
1529.12.11 = {
	add_core = DUR
	remove_core = KAB
}
#1540.1.1 = {
#	religion = sikhism
#}
1585.1.1 = {
	controller = MUG
} # Man Singh occupies Kabulistan after death of Mirza Hakim
1585.2.1 = {
	owner = MUG
	fort_16th = yes
} # Annexed into empire again
1672.1.1 = {
	controller = REB
	revolt = {
		type = nationalist_rebels
	}
} # Widespread tribal uprisings
1675.1.1 = {
	controller = MUG
	revolt = { }
} # End of uprisings
1677.1.1 = {
	discovered_by = FRA
}
1690.1.1 = {
	discovered_by = ENG
}
1707.5.12 = {
	discovered_by = GBR
}
1737.1.1 = {
	controller = PER
}
1739.5.1 = {
	owner = PER
} # Captured by Persia, Nadir Shah
1747.10.1 = {
	owner = DUR
	controller = DUR
	add_core = DUR
	remove_core = MUG
} # Ahmad Shah established the Durrani empire
