# No previous file for Caruma

capital = "Caruma"
trade_goods = cotton
culture = chiribaya
religion = inti

hre = no

base_tax = 2
base_production = 0
base_manpower = 0

native_size = 20
native_ferocity = 1
native_hostileness = 8

discovered_by = south_american

450.1.1 = {
	set_province_flag = tribals_control_province
}
1420.1.1 = {
	owner = AYL
	controller = AYL
	add_core = AYL
	is_city = yes
}
1493.1.1 = {
	owner = INC
	controller = INC
	add_core = INC
	remove_core = AYL
}
1501.1.1 = {
	base_tax = 1
	native_size = 5
}
1529.1.1 = {
	owner = CZC
	controller = CZC
	add_core = QUI
	add_core = CZC
	remove_core = INC
}
1535.1.1 = {
	discovered_by = SPA
	add_core = SPA
	owner = SPA
	controller = SPA
	religion = catholic
	culture = castillian
}
1750.1.1 = {
	add_core = PEU
	culture = peruvian
}
1810.9.18 = {
	owner = PEU
	controller = PEU
}
1818.2.12 = {
	remove_core = SPA
}
