# No previous file for Bolevslavsko

owner = BOH
controller = BOH
add_core = BOH

capital = "Boleslaw" # Liberec became significant only during the industrialization
trade_goods = wheat #cloth
culture = czech
religion = catholic

hre = yes

base_tax = 12
base_production = 0
base_manpower = 0

is_city = yes
local_fortification_1 = yes

discovered_by = western
discovered_by = eastern
discovered_by = muslim
discovered_by = turkishtech

1356.1.1 = {
	add_permanent_province_modifier = {
		name = bohemian_estates
		duration = -1
	}
}
#1369.1.1 = {
#	capital = "Reychmberg"
#}
#1385.1.1 = {
#	capital = "Reichenberg"
#}
#1410.1.1 = {
#	capital = "Rychmberg"
#}
1457.1.1 = {
	unrest = 5
} # George of Podiebrand had to secure recognition from the German and Catholic towns
1464.1.1 = {
	unrest = 1
} # The Catholic nobility still undermines the crown.
1471.1.1 = {
	unrest = 0
}
1500.1.1 = {
	road_network = yes
}
1520.5.5 = {
	base_tax = 16
	base_production = 1
	base_manpower = 0
}
1526.8.30 = {
	owner = HAB
	controller = HAB
	add_core = HAB
} #Battle of Mohac where Lajos II dies -> Habsburg succession
1545.1.1 = {
	capital = "Rychberk"
}
1576.1.1 = {
	religion = reformed
}
#1592.1.1 = {
#	capital = "Lychberk"
#}
1618.4.23 = {
	revolt = {
		type = protestant_rebels
		size = 2
	}
	controller = REB
} # Defenstration of Prague
1619.3.1 = {
	revolt = { }
	owner = PAL
	controller = PAL
	add_core = PAL
}
1620.11.8 = {
	owner = HAB
	controller = HAB
	remove_core = PAL
}# Tilly beats the Winterking at White Mountain. Deus Vult!
1621.1.1 = { } # ... and let us start this session by executing the most inconvenient nobles....
1627.1.1 = {
	religion = catholic
} # Order from Ferdinand II to reconvert to Catholicism, many Protestant leave the country
#1634.1.1 = {
#	capital = "Libercum"
#}
1648.10.24 = {
	culture = czech
}
#1790.1.1 = {
#	capital = "Reichenberg"
#}
1806.7.12 = {
	hre = no
} # The Holy Roman Empire is dissolved
