# No previous file for Faridpur

owner = BNG
controller = BNG
add_core = BNG

capital = "Faridpur"
trade_goods = rice #cloth
culture = bengali
religion = sunni

hre = no

base_tax = 69
base_production = 0
base_manpower = 3

is_city = yes

discovered_by = indian
discovered_by = muslim
discovered_by = chinese
discovered_by = steppestech

1500.1.1 = {
	discovered_by = POR
}
1511.1.1 = {
	base_tax = 87
	base_manpower = 4
}
1530.1.1 = {
	add_permanent_claim = MUG
}
1530.1.2 = {
	add_core = TRT
}
1570.1.1 = {
	religion = sunni
} # Land reclamation
1587.1.1 = {
	owner = MUG
	controller = MUG
	add_core = MUG
} # Integrated into Mughal Empire
1627.1.1 = {
	discovered_by = POR
}
1707.3.15 = {
	owner = BNG
	controller = BNG
}
1760.1.1 = {
	owner = GBR
	controller = GBR
	remove_core = MUG
} # Given to GBR by Mir Qasim
1810.1.1 = {
	add_core = GBR
}
