# 5449 tongzhou

owner = YUA
controller = YUA

capital = "Tongchuan"
trade_goods = rice
culture = bashu
religion = confucianism

hre = no

base_tax = 8
base_production = 0
base_manpower = 0

is_city = yes
road_network = yes

discovered_by = chinese
discovered_by = steppestech

985.1.1 = {
	owner = SNG
	controller = SNG
	add_core = SNG
}
1279.1.1 = {
	owner = YUA
	controller = YUA
	add_core = YUA
}
1320.1.1 = {
	remove_core = SNG
}
1351.1.1 = {
	owner = DXI
	controller = DXI
	add_core = DXI
}
1356.1.1 = {
	controller = SHU
}
1359.1.1 = {
	owner = XIA
	controller = XIA
	add_core = XIA
}
1371.1.1 = {
	owner = MNG
	controller = MNG
	add_core = MNG
	remove_core = DXI
	remove_core = XIA
	remove_core = YUA
}
1480.1.1 = {
	culture = jingchu
}
1520.2.2 = {
	base_tax = 12
	base_manpower = 0
}
1662.1.1 = {
	owner = CMN
	controller = CMN
	add_core = CMN
	remove_core = MNG
}# Geng Jingzhong appointed as viceroy
#1662.1.1 = {
#	owner = QNG
#	controller = QNG
#	add_core = QNG
#	remove_core = MNG
#} # The Qing Dynasty
1673.11.1 = {
	add_core = QNG
} # Wu Sangui revolt, core given to Qing for reconquering
1680.10.1 = {
	owner = QNG
	controller = QNG
	remove_core = CMN
}
