# 584 - Ava

owner = PIN
controller = PIN
add_core = PIN

capital = "Pinya"
trade_goods = opium
culture = burmese
religion = buddhism

base_tax = 13
base_production = 5
base_manpower = 1

is_city = yes
urban_infrastructure_1 = yes
workshop = yes
marketplace = yes

discovered_by = chinese
discovered_by = indian
# Awa between 2 rivers and many moats made from swamps

450.1.1 = {
	set_province_flag = has_confluence
	set_province_flag = good_natural_place
	add_permanent_province_modifier = {
		name = "ava_confluence"
		duration = -1
	}
}
1313.2.7 = {
	owner = PIN
	controller = PIN
	add_core = PIN
}
1365.2.26 = {
	remove_core = PIN
	add_core = AVA
	owner = AVA
	controller = AVA
	capital = "Awa"
}
1501.1.1 = {
	base_tax = 15
	base_production = 6
	base_manpower = 2
}
1527.1.16 = {
	owner = MYA
	controller = MYA
	add_core = MYA
}
1555.1.1 = {
	owner = TAU
	controller = TAU
	add_core = TAU
	remove_core = MYA
}
1752.2.28 = {
	owner = BRM
	controller = BRM
	add_core = BRM
	remove_core = TAU
	remove_core = AVA
}
1857.2.13 = {
	capital = "Mandalay"
}
1885.1.1 = {
	owner = GBR
	controller = GBR
}
