# 607 - Kimi
# LS - Indochina set up
# TM-Smiles indochina-mod for meiou

owner = CHA
controller = CHA
add_core = CHA

capital = "Kimi"
trade_goods = fish
culture = cham
religion = hinduism

hre = no

base_tax = 3
base_production = 0
base_manpower = 0

is_city = yes
harbour_infrastructure_1 = yes
fort_14th = yes

discovered_by = chinese
discovered_by = indian
discovered_by = muslim

1471.4.1 = {
	owner = DAI
	controller = DAI
	add_core = DAI
	culture = vietnamese
	religion = confucianism
	rename_capital = "Hoa Anh"
	change_province_name = "Hoa Anh"
} # Severe defeat against the Vietnamese
1501.1.1 = {
	base_tax = 4
}
1519.4.2 = {
	wharf = yes
}
1522.4.4 = {
	marketplace = yes
}
1530.1.1 = {
	owner = ANN
	controller = ANN
	add_core = ANN
} # Restoriationist
1535.1.1 = {
	discovered_by = POR
}
1545.1.1 = {
	owner = TOK
	controller = TOK
	add_core = TOK
} # Nguyen Kim dies
1558.1.1 = {
	owner = ANN
	controller = ANN
	add_core = ANN
	remove_core = TOK
} # Nguyen Hoang
1692.1.1 = {
	unrest = 6
} # Rebellion against the Vietnamese
1693.1.1 = {
	unrest = 0
}
1769.1.1 = {
	unrest = 6
} # Tay Son Rebellion
1776.1.1 = {
	unrest = 0
	owner = DAI
	controller = DAI
	add_core = DAI
} # Tay Son Dynasty conquered the Nguyen Lords
1786.1.1 = {
	unrest = 5
} # Unsuccessful revolt
1787.1.1 = {
	unrest = 0
}
1802.7.22 = {
	owner = ANN
	controller = ANN
	remove_core = DAI
} # Nguyen Phuc Anh conquered the Tay Son Dynasty
1883.8.25 = {
	owner = FRA
	controller = FRA
	capital = "Turon"
}
