# 672 - Guanxi Xiangshan

owner = YUA
controller = YUA

capital = "Lingui"
trade_goods = tea
culture = yaozu
religion = animism

hre = no

base_tax = 45
base_production = 3
base_manpower = 2

is_city = yes
road_network = yes
urban_infrastructure_1 = yes
temple = yes
fort_14th = yes

discovered_by = chinese
discovered_by = steppestech

450.1.1 = {
	set_province_flag = tribals_control_province
}
985.1.1 = {
	owner = SNG
	controller = SNG
	add_core = SNG
}
1200.1.1 = {
	set_province_flag = mined_goods
	set_province_flag = lead
}
1279.1.1 = {
	owner = YUA
	controller = YUA
	add_core = YUA
}
1320.1.1 = {
	remove_core = SNG
}
1351.1.1 = {
	owner = ZHN
	controller = ZHN
	add_core = ZHN
}
1368.1.1 = {
	owner = MNG
	controller = MNG
	add_core = MNG
	remove_core = ZHN
	remove_core = LNG
}
1521.1.1 = {
	base_tax = 72
	base_production = 3
	base_manpower = 3
}
1662.1.1 = {
	owner = QNG
	controller = QNG
	add_core = QNG
	remove_core = MNG
} # The Qing Dynasty