country_decisions = {
	
	restore_israel = {
		major = yes
		potential = {
			religion_group = jewish_group
			NOT = { exists = ISR }
		}
		allow = {
			owns = 379 #Jerusalem
			custom_trigger_tooltip = {
				tooltip = jewish_holy_land_3
				num_of_owned_provinces_with = {
					has_province_flag = jewish_holy_land
					value = 3
				}
			}
			is_at_war = no
			has_regency = no
		}
		effect = {
			change_tag = ISR
			every_province = {
				limit = { has_province_flag = jewish_holy_land }
				add_core = ISR
			}
			Effect_set_capital = { target=379 }
			add_prestige = 20
			add_absolutism = 10
			if = {
				limit = {
					has_custom_ideas = no
					NOT = { has_idea_group = israeli_ideas }
				}
				swap_national_ideas_effect = yes
			}
		}
		ai_will_do = { factor = 1 }
	}
	
}