country_decisions = {
	
	remove_ikki = {
		potential = {
			religion = mahayana
			any_owned_province = {
				has_province_modifier = ikki_league
				controlled_by = owner
				has_siege = no
			}
			has_global_flag = ikko_ikki
			NOT = { has_country_flag = pure_land_buddhism }
		}
		allow = {
			is_at_war = no
			stability = 0
			MIL = 3
		}
		effect = {
			add_mil_power = -25
			if = {
				limit = { NOT = { has_country_flag = ikko_ikki_rebels } }
				subtract_stability_1 = yes
				clr_country_flag = ikko_ikki_rebels
			}
			if = {
				limit = { army_size = 20 }
				every_owned_province = {
					limit = { has_province_modifier = ikki_league }
					remove_province_modifier = ikki_league
					add_unrest = 3
				}
			}
			if = {
				limit = { army_size = 16 NOT = { army_size = 20 } }
				random_list = {
					80 = {
						every_owned_province = {
							limit = { has_province_modifier = ikki_league }
							remove_province_modifier = ikki_league
							add_unrest = 3
						}
					}
					20 = {
						set_country_flag = ikko_ikki_rebels
						every_owned_province = {
							limit = { has_province_modifier = ikki_league }
							remove_province_modifier = ikki_league
							spawn_rebels = { type = ikko_ikki_rebels size = 1 }
							add_unrest = 3
						}
					}
				}
			}
			if = {
				limit = { army_size = 12 NOT = { army_size = 16 } }
				random_list = {
					60 = {
						every_owned_province = {
							limit = { has_province_modifier = ikki_league }
							remove_province_modifier = ikki_league
							add_unrest = 3
						}
					}
					40 = {
						set_country_flag = ikko_ikki_rebels
						every_owned_province = {
							limit = { has_province_modifier = ikki_league }
							remove_province_modifier = ikki_league
							spawn_rebels = { type = ikko_ikki_rebels size = 1 }
							add_unrest = 3
						}
					}
				}
			}
			if = {
				limit = { army_size = 8 NOT = { army_size = 12 } }
				random_list = {
					40 = {
						every_owned_province = {
							limit = { has_province_modifier = ikki_league }
							remove_province_modifier = ikki_league
							add_unrest = 3
						}
					}
					60 = {
						set_country_flag = ikko_ikki_rebels
						every_owned_province = {
							limit = { has_province_modifier = ikki_league }
							remove_province_modifier = ikki_league
							spawn_rebels = { type = ikko_ikki_rebels size = 1 }
							add_unrest = 3
						}
					}
				}
			}
			if = {
				limit = { army_size = 4 NOT = { army_size = 8 } }
				random_list = {
					20 = {
						every_owned_province = {
							limit = { has_province_modifier = ikki_league }
							remove_province_modifier = ikki_league
							add_unrest = 3
						}
					}
					80 = {
						set_country_flag = ikko_ikki_rebels
						every_owned_province = {
							limit = { has_province_modifier = ikki_league }
							remove_province_modifier = ikki_league
							spawn_rebels = { type = ikko_ikki_rebels size = 1 }
							add_unrest = 3
						}
					}
				}
			}
			if = {
				limit = { NOT = { army_size = 4 } }
				set_country_flag = ikko_ikki_rebels
				every_owned_province = {
					limit = { has_province_modifier = ikki_league }
					remove_province_modifier = ikki_league
					spawn_rebels = { type = ikko_ikki_rebels size = 1 }
					add_unrest = 3
				}
			}
		}
		ai_will_do = {
			factor = 1
			modifier = {
				NOT = { army_size = 4 }
				factor = 0
			}
			modifier = {
				NOT = { has_country_flag = ikko_ikki_rebels }
				factor = 0
			}
		}
	}
	ban_pure_land = {
		potential = {
			religion = mahayana
			has_global_flag = ikko_ikki
			any_owned_province = {
				has_province_modifier = temple_town_pure_land
				controlled_by = owner
				has_siege = no
			}
			NOT = { any_owned_province = { has_province_modifier = ikki_league } }
			NOT = { has_country_flag = pure_land_banned }
		}
		allow = {
			ADM = 3
			is_at_war = no
			stability = 0
		}
		effect = {
			set_country_flag = pure_land_banned
			add_patriarch_authority = -0.10
			add_mil_power = -25
			if = {
				limit = { NOT = { has_country_flag = ikko_ikki_rebels } }
				subtract_stability_1 = yes
				clr_country_flag = ikko_ikki_rebels
			}
			if = {
				limit = { army_size = 20 }
				every_owned_province = {
					limit = { has_province_modifier = ikki_league }
					remove_province_modifier = ikki_league
					add_unrest = 3
				}
			}
			if = {
				limit = { army_size = 16 NOT = { army_size = 20 } }
				random_list = {
					80 = {
						every_owned_province = {
							limit = { has_province_modifier = ikki_league }
							remove_province_modifier = ikki_league
							add_unrest = 3
						}
					}
					20 = {
						set_country_flag = ikko_ikki_rebels
						every_owned_province = {
							limit = { has_province_modifier = ikki_league }
							remove_province_modifier = ikki_league
							spawn_rebels = { type = ikko_ikki_rebels size = 1 }
							add_unrest = 3
						}
					}
				}
			}
			if = {
				limit = { army_size = 12 NOT = { army_size = 16 } }
				random_list = {
					60 = {
						every_owned_province = {
							limit = { has_province_modifier = ikki_league }
							remove_province_modifier = ikki_league
							add_unrest = 3
						}
					}
					40 = {
						set_country_flag = ikko_ikki_rebels
						every_owned_province = {
							limit = { has_province_modifier = ikki_league }
							remove_province_modifier = ikki_league
							spawn_rebels = { type = ikko_ikki_rebels size = 1 }
							add_unrest = 3
						}
					}
				}
			}
			if = {
				limit = { army_size = 8 NOT = { army_size = 12 } }
				random_list = {
					40 = {
						every_owned_province = {
							limit = { has_province_modifier = ikki_league }
							remove_province_modifier = ikki_league
							add_unrest = 3
						}
					}
					60 = {
						set_country_flag = ikko_ikki_rebels
						every_owned_province = {
							limit = { has_province_modifier = ikki_league }
							remove_province_modifier = ikki_league
							spawn_rebels = { type = ikko_ikki_rebels size = 1 }
							add_unrest = 3
						}
					}
				}
			}
			if = {
				limit = { army_size = 4 NOT = { army_size = 8 } }
				random_list = {
					20 = {
						every_owned_province = {
							limit = { has_province_modifier = ikki_league }
							remove_province_modifier = ikki_league
							add_unrest = 3
						}
					}
					80 = {
						set_country_flag = ikko_ikki_rebels
						every_owned_province = {
							limit = { has_province_modifier = ikki_league }
							remove_province_modifier = ikki_league
							spawn_rebels = { type = ikko_ikki_rebels size = 1 }
							add_unrest = 3
						}
					}
				}
			}
			if = {
				limit = { NOT = { army_size = 4 } }
				set_country_flag = ikko_ikki_rebels
				every_owned_province = {
					limit = { has_province_modifier = ikki_league }
					remove_province_modifier = ikki_league
					spawn_rebels = { type = ikko_ikki_rebels size = 1 }
					add_unrest = 3
				}
			}
		}
		ai_will_do = {
			factor = 1
			modifier = {
				NOT = { army_size = 4 }
				factor = 0
			}
			modifier = {
				NOT = { has_country_flag = ikko_ikki_rebels }
				NOT = { exists = IKK }
				factor = 0
			}
		}
	}
	allow_pure_land = {
		potential = {
			has_country_flag = pure_land_banned
			had_country_flag = { flag = pure_land_banned days = 10000 }
			religion = mahayana
		}
		allow = {
			ADM = 3
		}
		effect = {
			clr_country_flag = pure_land_banned
			add_patriarch_authority = 0.10
			clr_country_flag = ikko_ikki_rebels
			add_stability_1 = yes
			add_adm_power = -25
			if = {
				limit = { any_owned_province = { has_province_flag = head_temple_pure_land } }
				every_owned_province = {
					limit = { has_province_flag = head_temple_pure_land }
					add_province_modifier = { name = temple_town_pure_land duration = -1 }
				}
			}
		}
		ai_will_do = {
			factor = 1
		}
	}
	
}