country_decisions = {
	#modernise_administration = {
	#	potential = {
	#		has_institution = enlightenment # is_westernising = yes # pending discussion on better replacement
	#		has_country_flag = modernisation_started
	#		NOT = {
	#			OR = {
	#				has_country_flag = started_modernising_administration
	#				has_country_flag = finished_modernising_administration
	#			}
	#		}
	#	}
	#	allow = {
	#		OR = {
	#			ADM = 4
	#			treasurer = 1
	#			master_of_mint = 1
	#			philosopher = 2
	#			architect = 3
	#			theologian = 3
	#			natural_scientist = 3
	#		}
	#		custom_trigger_tooltip = {
	#			OR = {
	#				had_country_flag = { flag = modernisation_stopped days = 1825 }
	#				NOT = {
	#					has_country_flag = modernisation_stopped
	#				}
	#			}
	#			tooltip = modernisation_stopped_tooltip
	#		}
	#	}
	#	effect = {
	#		set_country_flag = started_modernising_administration
	#		clr_country_flag = modernisation_stopped
	#	}
	#	ai_will_do = {
	#		factor = 1
	#	}
	#}
	#
	#modernise_military = {
	#	potential = {
	#		has_institution = enlightenment # is_westernising = yes # pending discussion on better replacement
	#		has_country_flag = modernisation_started
	#		NOT = {
	#			OR = {
	#				has_country_flag = started_modernising_military
	#				has_country_flag = finished_modernising_military
	#			}
	#		}
	#	}
	#	allow = {
	#		custom_trigger_tooltip = {
	#			has_country_flag = finished_modernising_administration
	#			tooltip = finished_modernising_administration_tooltip
	#		}
	#		custom_trigger_tooltip = {
	#			NOT = {
	#				OR = {
	#					has_country_flag = started_modernising_navy
	#					has_country_flag = started_modernising_society
	#					has_country_flag = started_modernising_economy_and_trade
	#				}
	#			}
	#			tooltip = not_reforming_something_else_tooltip
	#		}
	#		custom_trigger_tooltip = {
	#			OR = {
	#				had_country_flag = { flag = modernisation_stopped days = 1825 }
	#				NOT = {
	#					has_country_flag = modernisation_stopped
	#				}
	#			}
	#			tooltip = modernisation_stopped_tooltip
	#		}
	#		OR = {
	#			MIL = 4
	#			army_reformer = 1
	#			army_organiser = 1
	#			commandant = 2
	#			colonel = 2
	#			quartermaster = 2
	#			recruitmaster = 2
	#			fortification_expert = 2
	#			grand_captain = 2
	#		}
	#		
	#	}
	#	effect = {
	#		set_country_flag = started_modernising_military
	#		clr_country_flag = modernisation_stopped
	#	}
	#	ai_will_do = {
	#		factor = 1
	#	}
	#}
	#
	#modernise_navy = {
	#	potential = {
	#		has_institution = enlightenment # is_westernising = yes # pending discussion on better replacement
	#		has_country_flag = modernisation_started
	#		NOT = {
	#			OR = {
	#				has_country_flag = started_modernising_navy
	#				has_country_flag = finished_modernising_navy
	#			}
	#		}
	#	}
	#	allow = {
	#		custom_trigger_tooltip = {
	#				has_country_flag = finished_modernising_administration
	#				tooltip = finished_modernising_administration_tooltip
	#		}
	#		custom_trigger_tooltip = {
	#			NOT = {
	#				OR = {
	#					has_country_flag = started_modernising_military
	#					has_country_flag = started_modernising_society
	#					has_country_flag = started_modernising_economy_and_trade
	#				}
	#			}
	#			tooltip = not_reforming_something_else_tooltip
	#		}
	#		custom_trigger_tooltip = {
	#			OR = {
	#				had_country_flag = { flag = modernisation_stopped days = 1825 }
	#				NOT = {
	#					has_country_flag = modernisation_stopped
	#				}
	#			}
	#			tooltip = modernisation_stopped_tooltip
	#		}
	#		OR = {
	#			OR = {
	#				MIL = 5
	#				DIP = 3
	#			}
	#			naval_reformer = 1
	#			grand_admiral = 2
	#			rear_admiral = 2
	#			navigator = 2
	#			lord_proprietor = 3
	#			astronomist = 3
	#		}
	#	}
	#	effect = {
	#		set_country_flag = started_modernising_navy
	#		clr_country_flag = modernisation_stopped
	#	}
	#	ai_will_do = {
	#		factor = 1
	#	}
	#}
	#
	#modernise_society = {
	#	potential = {
	#		has_institution = enlightenment # is_westernising = yes # pending discussion on better replacement
	#		has_country_flag = modernisation_started
	#		NOT = {
	#			OR = {
	#				has_country_flag = started_modernising_society
	#				has_country_flag = finished_modernising_society
	#			}
	#		}
	#	}
	#	allow = {
	#		custom_trigger_tooltip = {
	#				has_country_flag = finished_modernising_administration
	#				tooltip = finished_modernising_administration_tooltip
	#		}
	#		custom_trigger_tooltip = {
	#			NOT = {
	#				OR = {
	#					has_country_flag = started_modernising_military
	#					has_country_flag = started_modernising_navy
	#					has_country_flag = started_modernising_economy_and_trade
	#				}
	#			}
	#			tooltip = not_reforming_something_else_tooltip
	#		}
	#		custom_trigger_tooltip = {
	#			OR = {
	#				had_country_flag = { flag = modernisation_stopped days = 1825 }
	#				NOT = {
	#					has_country_flag = modernisation_stopped
	#				}
	#			}
	#			tooltip = modernisation_stopped_tooltip
	#		}
	#		OR = {
	#			ADM = 3
	#			high_judge = 1
	#			philosopher = 2
	#			architect = 3
	#			theologian = 3
	#			natural_scientist = 3
	#			statesman = 2
	#		}
	#	}
	#	effect = {
	#		set_country_flag = started_modernising_society
	#		clr_country_flag = modernisation_stopped
	#	}
	#	ai_will_do = {
	#		factor = 1
	#	}
	#}
	#
	#modernise_economy_and_trade = {
	#	potential = {
	#		has_institution = enlightenment # is_westernising = yes # pending discussion on better replacement
	#		has_country_flag = modernisation_started
	#		NOT = {
	#			OR = {
	#				has_country_flag = started_modernising_economy_and_trade
	#				has_country_flag = finished_modernising_economy_and_trade
	#			}
	#		}
	#	}
	#	allow = {
	#		custom_trigger_tooltip = {
	#				has_country_flag = finished_modernising_administration
	#				tooltip = finished_modernising_administration_tooltip
	#		}
	#		custom_trigger_tooltip = {
	#			NOT = {
	#				OR = {
	#					has_country_flag = started_modernising_military
	#					has_country_flag = started_modernising_navy
	#					has_country_flag = started_modernising_society
	#				}
	#			}
	#			tooltip = not_reforming_something_else_tooltip
	#		}
	#		custom_trigger_tooltip = {
	#			OR = {
	#				had_country_flag = { flag = modernisation_stopped days = 1825 }
	#				NOT = {
	#					has_country_flag = modernisation_stopped
	#				}
	#			}
	#			tooltip = modernisation_stopped_tooltip
	#		}
	#		OR = {
	#			DIP = 4
	#			ADM = 4
	#			trader = 1
	#			treasurer = 1
	#			alderman = 1
	#			collector = 1
	#			master_of_mint = 2
	#			philosopher = 3
	#			natural_scientist = 3
	#			architect = 3
	#		}
	#	}
	#	effect = {
	#		set_country_flag = started_modernising_economy_and_trade
	#		clr_country_flag = modernisation_stopped
	#	}
	#	ai_will_do = {
	#		factor = 1
	#	}
	#}
	#
	#modernise_the_horde = {
	#	potential = {
	#		technology_group = steppestech
	#		government = tribal_nomads_steppe
	#		adm_tech = 25
	#	}
	#	allow = {
	#		has_institution = enlightenment # is_westernising = yes # pending discussion on better replacement
	#		adm_tech = 30
	#		OR = {
	#			ADM = 3
	#			high_judge = 1
	#			philosopher = 2
	#			architect = 3
	#			theologian = 3
	#			natural_scientist = 3
	#			statesman = 2
	#		}
	#	}
	#	effect = {
	#		set_country_flag = horde_sedentarisation_triggered
	#		subtract_stability_6 = yes
	#		random_owned_province = {
	#			limit = {
	#				culture_group = ROOT
	#			}
	#			spawn_rebels = {
	#				type = pretender_rebels
	#				size = 2
	#			}
	#		}
	#		random_owned_province = {
	#			limit = {
	#				culture_group = ROOT
	#			}
	#			spawn_rebels = {
	#				type = pretender_rebels
	#				size = 1
	#			}
	#		}
	#	}
	#	ai_will_do = {
	#		factor = 1
	#	}
	#}
	
}
