#PAH - Pahang

government = eastern_monarchy government_rank = 1
mercantilism = 0.0
primary_culture = malayan
religion = buddhism
technology_group = austranesian
capital = 598

1000.1.1 = {
	add_country_modifier = { name = title_4 duration = -1 }
	set_country_flag = title_4
	#set_variable = { which = "centralization_decentralization" value = 5 }
	add_absolutism = -100
	add_absolutism = 0
}

1354.1.1 = {
	monarch = {
		name = "Muhammad Tahir"
		dynasty = "Bendahara"
		ADM = 2
		DIP = 2
		MIL = 1
	}
}

#1377-1451 to Ayutthaya

1451.1.1 = {
	monarch = {
		name = "Muhammad I"
		dynasty = "Bendahara"
		ADM = 3
		DIP = 4
		MIL = 2
	}
	heir = {
		name = "Ahmad"
		monarch_name = "Ahmad"
		dynasty = "Bendahara"
		birth_date = 1430.1.1
		death_date = 1497.1.1
		claim = 95
		ADM = 6
		DIP = 5
		MIL = 4
	}
}

1475.1.1 = {
	monarch = {
		name = "Ahmad"
		dynasty = "Bendahara"
		ADM = 6
		DIP = 5
		MIL = 4
	}
}

1497.1.1 = {
	monarch = {
		name = "Mansur"
		dynasty = "Bendahara"
		ADM = 3
		DIP = 2
		MIL = 1
	}
	heir = {
		name = "Mahmud"
		monarch_name = "Mahmud"
		dynasty = "Bendahara"
		birth_date = 1460.1.1
		death_date = 1530.1.1
		claim = 95
		ADM = 2
		DIP = 2
		MIL = 3
	}
}

1519.1.1 = {
	monarch = {
		name = "Mahmud"
		dynasty = "Bendahara"
		ADM = 2
		DIP = 2
		MIL = 3
	}
}

1530.1.1 = {
	monarch = {
		name = "Muzaffar"
		dynasty = "Bendahara"
		ADM = 2
		DIP = 1
		MIL = 1
	}
	heir = {
		name = "Zainal - Abidin"
		monarch_name = "Zainal - Abidin"
		dynasty = "Bendahara"
		birth_date = 1490.1.1
		death_date = 1555.1.1
		claim = 95
		ADM = 2
		DIP = 6
		MIL = 4
	}
}

1540.1.1 = {
	monarch = {
		name = "Zainal - Abidin"
		dynasty = "Bendahara"
		ADM = 2
		DIP = 6
		MIL = 4
	}
	heir = {
		name = "Mansur"
		monarch_name = "Mansur II"
		dynasty = "Bendahara"
		birth_date = 1520.1.1
		death_date = 1560.1.1
		claim = 95
		ADM = 3
		DIP = 3
		MIL = 5
	}
}

1555.1.1 = {
	monarch = {
		name = "Mansur II"
		dynasty = "Bendahara"
		ADM = 3
		DIP = 3
		MIL = 5
	}
}

1560.1.1 = {
	monarch = {
		name = "Abdul Jamal"
		dynasty = "Bendahara"
		ADM = 4
		DIP = 2
		MIL = 6
	}
	heir = {
		name = "Ahmad"
		monarch_name = "Ahmad II"
		dynasty = "Bendahara"
		birth_date = 1540.1.1
		death_date = 1592.1.1
		claim = 95
		ADM = 3
		DIP = 3
		MIL = 5
	}
}

1590.1.1 = {
	monarch = {
		name = "Ahmad II"
		dynasty = "Bendahara"
		ADM = 1
		DIP = 1
		MIL = 5
	}
}

1592.1.1 = {
	monarch = {
		name = "Abdul Ghafur"
		dynasty = "Bendahara"
		ADM = 3
		DIP = 5
		MIL = 5
	}
	heir = {
		name = "Abdul Jalil"
		monarch_name = "Abdul Jalil"
		dynasty = "Bendahara"
		birth_date = 1580.1.1
		death_date = 1617.1.1
		claim = 95
		ADM = 3
		DIP = 3
		MIL = 5
	}
}

1615.1.1 = {
	monarch = {
		name = "Abdul Jalil"
		dynasty = "Bendahara"
		ADM = 2
		DIP = 3
		MIL = 2
	}
}

1617.1.1 = {
	monarch = {
		name = "bin Aladdin"
		dynasty = "Bendahara"
		ADM = 2
		DIP = 5
		MIL = 3
	}
}

1623.1.1 = {
	monarch = {
		name = "Abdul Jalil"
		dynasty = "Bendahara"
		ADM = 1
		DIP = 1
		MIL = 3
	}
}

1777.1.1 = {
	monarch = {
		name = "Abdul Majid"
		dynasty = "Bendahara"
		ADM = 2
		DIP = 2
		MIL = 2
	}
	heir = {
		name = "Muhammad"
		monarch_name = "Muhammad"
		dynasty = "Bendahara"
		birth_date = 1750.1.1
		death_date = 1803.1.1
		claim = 95
		ADM = 3
		DIP = 6
		MIL = 6
	}
}

1802.1.1 = {
	monarch = {
		name = "Muhammad"
		dynasty = "Bendahara"
		ADM = 3
		DIP = 6
		MIL = 6
	}
}

1803.1.1 = {
	monarch = {
		name = "Koris"
		dynasty = "Bendahara"
		ADM = 1
		DIP = 2
		MIL = 1
	}
}

1806.1.1 = {
	monarch = {
		name = "'Ali"
		dynasty = "Bendahara"
		ADM = 1
		DIP = 1
		MIL = 1
	}
}